     43 che
     33 la
     33 e
     20 a
     17 per
     17 di
     15 sì
     13 io
     12 non
     11 ’l
     11 si
     11 mi
     11 in
     10 è
      8 E
      6 lo
      6 li
      6 le
      6 il
      6 del
      6 de
      6 così
      5 tu
      5 quel
      5 poi
      5 mente
      5 come
      5 ch’io
      5 bene
      4 «La
      4 ti
      4 tal
      4 questo
      4 più
      4 perché
      4 onde
      4 ne
      4 ma
      4 fede
      4 con
      3 «O
      3 volte
      3 vi
      3 un
      3 udi’
      3 tua
      3 tre
      3 su
      3 sopra
      3 se
      3 qui
      3 quella
      3 qual
      3 pare
      3 ogne
      3 nel
      3 mia
      3 me
      3 luce
      3 ho
      3 giù
      3 già
      3 ed
      3 da
      3 credo
      3 credenza
      3 Beatrice
      2 ïo
      2 «Se
      2 «Dì
      2 vostra
      2 voi
      2 verace
      2 uno
      2 una
      2 tuo
      2 tra
      2 sustanza
      2 sua
      2 spere
      2 spera
      2 son
      2 sempre
      2 santa
      2 ramo
      2 quest’
      2 questa
      2 quelle
      2 profonda
      2 piace
      2 però
      2 parlare
      2 padre
      2 novella
      2 mio
      2 l’hai
      2 l’alta
      2 lì
      2 là
      2 lui
      2 lasciò
      2 intorno
      2 intenza
      2 indi
      2 gran
      2 fonte
      2 fonda
      2 foco
      2 dottrina
      2 divina
      2 detto
      2 cui
      2 creder
      2 cose
      2 com’
      2 comincia’
      2 ciò
      2 ch’ei
      2 ché
      2 chi
      2 buon
      2 benedetto
      2 anche
      2 amore
      2 altri
      2 al
      2 Ond’
      2 Io
      2 Grazia
      2 Dio
      2 Così
      2 Allora
      1 ﻿«O
      1 ’nverso
      1 ’nteso
      1 ’n
      1 ‘sono’
      1 ‘este’
      1 ‘Dio
      1 è»
      1 «tu
      1 «sanza
      1 «da
      1 «Sì
      1 «Questa
      1 «L’antica
      1 «Le
      1 «Dirittamente
      1 «Come
      1 «Assai
      1 v’è
      1 vuo’
      1 vuol
      1 volsi
      1 volse
      1 voli
      1 voglia
      1 vivo
      1 vivace
      1 vite
      1 vista
      1 viso
      1 virtù
      1 viro
      1 vincesti
      1 vien
      1 vid’
      1 ver’
      1 verità
      1 ver
      1 venne»
      1 veloci
      1 vedi
      1 vede
      1 vecchie
      1 uscì
      1 uscire
      1 t’è
      1 t’assicura
      1 t’aperse
      1 tutto
      1 troppo
      1 trina
      1 tratto
      1 trascorsa
      1 tosto
      1 tonda
      1 tocco
      1 terminarla
      1 tenta
      1 tene»
      1 tempra
      1 tempo
      1 teco
      1 tanto
      1 tacqui
      1 tace
      1 s’offerse»
      1 s’inforsa»
      1 s’arma
      1 s’acquista
      1 sù
      1 sustanze
      1 suora
      1 suo
      1 stimar
      1 stilo
      1 stella
      1 splendeva
      1 spirò
      1 spiro
      1 spirito
      1 spirava
      1 sperate
      1 spene
      1 spandessi
      1 sono
      1 solo
      1 sola
      1 soggiunse
      1 sofista»
      1 soffera
      1 sodalizio
      1 silogizzar
      1 silogismo
      1 sigilla
      1 servo
      1 sepulcro
      1 senti
      1 seminar
      1 sembianze
      1 seguite
      1 seguitai
      1 segnor
      1 scrivo
      1 scriveste
      1 scrisse
      1 scintilla»
      1 scalda
      1 sanz’
      1 santo
      1 salta
      1 salmi
      1 roratelo
      1 rivolse
      1 rispondo
      1 risonò
      1 ripuose
      1 ridice
      1 ricominciò
      1 ricchezza
      1 regno
      1 ragione
      1 quïeto
      1 quivi
      1 quinci
      1 quiditate»
      1 question
      1 questi
      1 queste
      1 querente
      1 quell’
      1 quello
      1 quantunque
      1 quale
      1 pur
      1 punti
      1 pruno»
      1 prove
      1 provarsi
      1 prova
      1 proposizion
      1 propone
      1 pronto
      1 pronte
      1 profonde
      1 profeti
      1 professione
      1 principio
      1 primo
      1 primipilo
      1 prima
      1 prieghe
      1 presto
      1 prescriba
      1 prende
      1 preliba
      1 povero
      1 portò
      1 ponete
      1 pon
      1 poli
      1 ploia
      1 piove
      1 piena
      1 pieghe
      1 piedi»
      1 pianta
      1 piacqui
      1 peso
      1 persone
      1 perch’
      1 pensa»
      1 penna
      1 parvenza
      1 parventi
      1 parla
      1 ottusa»
      1 ora
      1 or
      1 opere
      1 occulto
      1 occhi
      1 né
      1 nuove
      1 nullo
      1 nulla
      1 notai
      1 nostra
      1 nol
      1 natura
      1 m’ha
      1 m’avea
      1 m’armava
      1 move
      1 moto
      1 morte
      1 moneta
      1 mondo
      1 mo
      1 mise
      1 miro
      1 miracoli
      1 miei
      1 metafisice
      1 mentre
      1 mensa
      1 melode
      1 medesmo
      1 mare
      1 manifesto
      1 manifesti
      1 mai
      1 maestro
      1 l’ultimo
      1 l’ultime
      1 l’opere
      1 l’imagine
      1 l’evangelica
      1 l’esser
      1 l’ardente
      1 l’appostolico
      1 l’alto
      1 l’affezione
      1 l’acqua
      1 l’Evangelio
      1 lume
      1 lucida
      1 loro
      1 lor
      1 loco
      1 lievi
      1 liete
      1 levai
      1 lente
      1 lei
      1 lega
      1 laudamo’
      1 largiscon
      1 larga
      1 i’
      1 intrasti
      1 interno
      1 intendi
      1 ingegno
      1 infino
      1 incude»
      1 immensa
      1 i
      1 hai
      1 ha
      1 guisa
      1 grazia
      1 gravi
      1 gratulando
      1 glorïarla
      1 giura»
      1 giran
      1 giovani
      1 gioia
      1 gaudio
      1 fïate
      1 fé
      1 fuori
      1 fuor
      1 fummi
      1 fu
      1 fronte
      1 fronde
      1 frate
      1 fosser
      1 fosse
      1 forma
      1 fissi
      1 fisice
      1 fin
      1 filo
      1 fiammando
      1 fiamma
      1 ferro
      1 fero
      1 fermato
      1 femmi
      1 felice
      1 favilla
      1 favellò
      1 favella»
      1 fatto
      1 fatti
      1 fatta
      1 fantasia
      1 facieno
      1 faccia
      1 etterno
      1 etterne
      1 etterna
      1 esser
      1 essenza
      1 essaminando
      1 essa
      1 espressi»
      1 espremer
      1 emerse
      1 ella
      1 eletto
      1 d’orïuoli
      1 d’ogne
      1 d’esta
      1 d’ella
      1 d’argomento
      1 dà
      1 dov’
      1 dovea
      1 donnea
      1 donna
      1 divota
      1 divo
      1 diss’
      1 disleghe»
      1 disio
      1 dischiude
      1 dirizzò
      1 dir
      1 dipinta
      1 dimostrazion
      1 dimmi
      1 dilata
      1 digiuno
      1 diffusa
      1 differente
      1 dicea
      1 danzando
      1 dalmi
      1 cuoia
      1 cristianesmo»
      1 credi
      1 credesti
      1 crede
      1 cotai
      1 costui
      1 cosa
      1 corte
      1 convien
      1 convene
      1 conio
      1 congiunto
      1 confessi»
      1 condizion
      1 conchiusa
      1 conchiude
      1 concetti
      1 comete
      1 comando
      1 color
      1 civi
      1 cinse
      1 cielo
      1 ciel
      1 ciba
      1 ci
      1 ch’è
      1 ch’ella
      1 ch’el
      1 ch’ascolta
      1 ch’a
      1 chiedesti
      1 chiavi
      1 chiarezza
      1 cerchi
      1 centesmo
      1 cena
      1 carole
      1 caro
      1 carezza
      1 cara
      1 canto
      1 cantando
      1 canta
      1 campo
      1 cagion
      1 cade
      1 buona
      1 borsa»
      1 bocca
      1 bevete
      1 benedicendomi
      1 ben
      1 bella
      1 batte
      1 baron
      1 baccialier
      1 avria
      1 avere
      1 avea
      1 ascose
      1 arrivi»
      1 argomento
      1 argomenti»
      1 ardente
      1 aprir
      1 approvo
      1 approvarla
      1 appresso
      1 appressavamo
      1 anime
      1 andavi
      1 ama
      1 altra
      1 alquanto
      1 almi
      1 affetto
      1 acutamente
      1 acceso
      1 abbraccia
      1 S’elli
      1 Sì
      1 Spirto
      1 Spirito
      1 Segnor
      1 Santo
      1 Roma
      1 Risposto
      1 Quest’
      1 Quel
      1 Poscia
      1 Però
      1 Nostro
      1 Moïsè
      1 Finito
      1 Ed
      1 Di
      1 De
      1 Cristiano
      1 Come
      1 Appresso
      1 Agnello
