     42 che
     33 e
     20 la
     19 per
     18 a
     15 di
     13 in
     13 da
     12 è
     12 si
     11 tanto
     11 non
     10 te
     10 più
      9 ’l
      9 io
      8 mia
      7 li
      7 ch’i’
      6 mio
      6 come
      5 un
      5 tal
      5 sì
      5 questo
      5 ma
      5 lume
      5 luce
      5 lo
      5 le
      5 il
      5 del
      5 de
      5 ciò
      5 al
      4 vista
      4 veder
      4 tua
      4 ti
      4 suo
      4 sua
      4 se’
      4 quel
      4 qual
      4 prieghi
      4 occhi
      4 ne
      4 miei
      4 mi
      4 mente
      4 me
      4 ch’io
      3 vidi
      3 una
      3 tutto
      3 tu
      3 sola
      3 quella
      3 possa
      3 perché
      3 nel
      3 lei
      3 i
      3 grazia
      3 era
      3 creatura
      3 con
      3 ché
      2 vuol
      2 vivo
      2 viso
      2 vi
      2 tutta
      2 tuo
      2 tre
      2 sé
      2 stesso
      2 son
      2 sol
      2 sempre
      2 semplice
      2 se
      2 reflesso
      2 raggio
      2 quinci
      2 qui
      2 questi
      2 quasi
      2 quanto
      2 pur
      2 priego
      2 poco
      2 parea
      2 ond’
      2 mortali
      2 mirava
      2 memoria
      2 mai
      2 l’universo
      2 l’altro
      2 l’alta
      2 lingua
      2 levi
      2 iri
      2 già
      2 fu
      2 etterna
      2 dopo
      2 credo
      2 cotal
      2 così
      2 ch’è
      2 cerchio
      2 cede
      2 ancor
      2 alquanto
      2 ad
      2 Qual
      2 Oh
      2 O
      2 Nel
      2 La
      2 E
      2 Così
      2 A
      1 ’mpresa
      1 ’
      1 ‘poco’
      1 «Vergine
      1 vuoli
      1 volume
      1 volgeva
      1 volgersi
      1 voleva
      1 volere
      1 volea
      1 volar
      1 voglia
      1 vivace
      1 vittoria
      1 vite
      1 visïone
      1 virtute
      1 verso
      1 versi
      1 vera
      1 ventre
      1 vento
      1 venticinque
      1 venne
      1 venerati
      1 venendo
      1 velle
      1 vedute
      1 veduta
      1 vedi
      1 vede
      1 valore
      1 vali
      1 universal
      1 umile
      1 umani
      1 t’intendi
      1 tutt’
      1 tutti
      1 tuoi
      1 travagliava
      1 tornare
      1 terzo
      1 termine
      1 s’invii
      1 s’interna
      1 s’indova
      1 s’era
      1 s’avvalorava
      1 s’affige
      1 s’aduna
      1 s’addrizzaro
      1 s’accoglie
      1 sustanze
      1 sussistenza
      1 suso
      1 supplica
      1 suoi
      1 stelle
      1 squaderna
      1 spiritali
      1 spiri
      1 speranza
      1 sostener
      1 sospesa
      1 sorridea
      1 sonare
      1 sommo
      1 somma
      1 solo
      1 sole
      1 sogno
      1 sognando
      1 soffersi
      1 soccorre
      1 smarrito
      1 sincera
      1 sieno
      1 sidi
      1 sento
      1 sentenza
      1 sembiante
      1 secoli
      1 scarsi
      1 sarà
      1 sarei
      1 sanz’
      1 sani
      1 salute
      1 rota
      1 ritrova
      1 ripresta
      1 rimane
      1 riede
      1 ricorre
      1 ricordo
      1 ricorda
      1 regina
      1 raccese
      1 quindi
      1 quantunque
      1 quanti
      1 puoi
      1 punto
      1 proprie
      1 profondo
      1 profonda
      1 principio
      1 presunsi
      1 precorre
      1 possente
      1 porgo
      1 pinta
      1 pietate
      1 piacer
      1 però
      1 perfetto
      1 perdea
      1 percossa
      1 perch’
      1 pensando
      1 penne
      1 passione
      1 parvermi
      1 parvenza
      1 parve
      1 parlar
      1 parevi
      1 pareva
      1 pace
      1 oltraggio
      1 ogne
      1 obietto
      1 nube
      1 nova
      1 nostra
      1 noi
      1 nodo
      1 nobilitasti
      1 neve
      1 natura
      1 nacque
      1 m’è
      1 m’accennava
      1 mutandom’
      1 movimenti
      1 move
      1 mostra
      1 mossa
      1 mortalità
      1 molte
      1 modo
      1 misurar
      1 misericordia
      1 mirar
      1 messo
      1 meridïana
      1 mani»
      1 mancò
      1 mammella
      1 magnificenza
      1 maggior
      1 maggio
      1 l’un
      1 l’umana
      1 l’ultima
      1 l’orator
      1 l’ombra
      1 l’occhio
      1 l’infima
      1 l’imago
      1 l’etterno
      1 l’etterna
      1 l’aspetto
      1 l’ardor
      1 l’amore
      1 l’amor
      1 l’altre
      1 l’alto
      1 l’acume
      1 lì
      1 lui
      1 lor
      1 liberamente
      1 levarsi
      1 letargo
      1 legato
      1 lasciare
      1 largo
      1 lacuna
      1 intrava
      1 intra
      1 intendente
      1 intelletta
      1 insieme
      1 innanzi
      1 infinito
      1 infin
      1 indige
      1 indi
      1 impressa
      1 impossibil
      1 immobile
      1 igualmente
      1 ha
      1 guardia
      1 guardassi
      1 guardando
      1 grati
      1 grande
      1 godo
      1 gloria
      1 giuso
      1 giunsi
      1 giri
      1 germinato
      1 geomètra
      1 gente
      1 fïate
      1 fé
      1 futura
      1 fuor
      1 fulgore
      1 fui
      1 fossero
      1 fosse
      1 forma
      1 fontana
      1 foglie
      1 foco
      1 fo
      1 fisso
      1 fissi
      1 fissa
      1 fiore
      1 fioco
      1 finii
      1 fine
      1 figlio
      1 figlia
      1 ficcar
      1 favilla
      1 favella
      1 fattura
      1 fattore
      1 farsi
      1 fante
      1 fantasia
      1 faceasi
      1 face
      1 fa
      1 essa
      1 eran
      1 elli
      1 ei
      1 effige
      1 d’una
      1 d’un
      1 d’etterno
      1 d’Argo
      1 dovea
      1 domanda
      1 dolce
      1 diventa
      1 disïanza
      1 distilla
      1 dispieghi
      1 disleghi
      1 disio
      1 disii
      1 disigilla
      1 disdegnò
      1 dire
      1 dimostraro
      1 dimandar
      1 diletti
      1 dico
      1 dicer
      1 dicendo
      1 devoti
      1 desiderio
      1 dentro
      1 defettivo
      1 dee
      1 da’
      1 davante
      1 cui
      1 creder
      1 co’
      1 costume
      1 corto
      1 corta
      1 core
      1 convenne
      1 contenenza
      1 consunsi
      1 consiglio
      1 conservi
      1 consenta
      1 conflati
      1 concetto
      1 concetti
      1 concetta
      1 conceperà
      1 com’
      1 colüi
      1 colori
      1 colore
      1 colei
      1 col
      1 circunspetta
      1 circulazion
      1 ch’una
      1 ch’un
      1 ch’igualmente
      1 ch’al
      1 ch’a
      1 chiudon
      1 chiaro
      1 chiara
      1 chi
      1 cessa
      1 caritate
      1 caldo
      1 bontate
      1 benignità
      1 ben
      1 beati
      1 basta
      1 bagni
      1 aversi
      1 attenta
      1 aspetto
      1 arsi
      1 arridi
      1 ardito
      1 appropinquava
      1 amore
      1 ammirar
      1 ami
      1 altro
      1 alto
      1 alta
      1 ali
      1 affetti
      1 accidenti
      1 accesa
      1 abbondante
      1 Vinca
      1 Un
      1 Sibilla
      1 Qui
      1 Quella
      1 Or
      1 Omai
      1 Non
      1 Nettuno
      1 Ne
      1 Madre
      1 Li
      1 Io
      1 In
      1 E’
      1 Donna
      1 Dio
      1 Da
      1 Bernardo
      1 Beatrice
      1 Ancor
