     49 e
     37 che
     20 la
     19 non
     19 a
     18 di
     17 per
     16 sì
     16 si
     15 più
     13 da
     10 le
     10 io
      9 li
      9 in
      8 ’l
      8 mi
      8 come
      6 è
      6 de
      6 ch’io
      6 E
      5 va
      5 mio
      5 lui
      5 già
      5 del
      5 ben
      4 «che
      4 un
      4 ti
      4 so
      4 oltre
      4 me
      4 i
      4 con
      4 col
      4 chi
      4 al
      3 volta
      3 veggio
      3 tra
      3 tal
      3 sù
      3 senti’
      3 sen
      3 quando
      3 poi
      3 occhi
      3 noi
      3 ma
      3 il
      3 gente
      3 fu
      3 el
      3 diss’
      3 dir
      3 dal
      3 ad
      3 Vidi
      3 Sì
      3 Ma
      2 «O
      2 voler
      2 voi
      2 vidi
      2 via
      2 vento
      2 vegg’
      2 vanno
      2 uno
      2 tutta
      2 troppo
      2 te
      2 suo
      2 sue
      2 sempre
      2 se
      2 schiera
      2 sanza
      2 qui
      2 questo
      2 questa
      2 quel
      2 quasi
      2 qual
      2 prima
      2 però
      2 passo
      2 partì
      2 parean
      2 par
      2 nel
      2 molto
      2 miei
      2 mia
      2 meco
      2 mai
      2 l’andar
      2 là
      2 lor
      2 lascia
      2 inver’
      2 giorno
      2 fosse
      2 fin
      2 fia
      2 fa
      2 esso
      2 esser
      2 d’un
      2 due
      2 disse
      2 dimmi
      2 dietro
      2 dicea
      2 dar
      2 cose
      2 com’
      2 compagni
      2 ciascun
      2 bestia
      2 andavam
      2 andar
      2 ancor
      2 alcuna
      2 Tu
      2 Poi
      2 Lucca
      2 Bonagiunta
      1 ‘Donne
      1 ïo
      1 «è
      1 «quant’
      1 «il
      1 «d’i
      1 «Trapassate
      1 «S’a
      1 «Ricordivi»
      1 «Qui
      1 «Quando
      1 «Or
      1 «Non
      1 «La
      1 «I’
      1 «Gentucca»
      1 «Femmina
      1 «Ella
      1 «Che
      1 «Beati
      1 vòto
      1 vòlto
      1 vuole
      1 vostre
      1 volsi
      1 volle
      1 volger
      1 volgendo
      1 volan
      1 voglia
      1 voce
      1 vo
      1 vivere
      1 viver
      1 vivagni
      1 vivaci
      1 viva
      1 vista
      1 viso
      1 vilmente
      1 vieta
      1 videro
      1 vetri
      1 verso
      1 vernan
      1 vernaccia»
      1 vere
      1 veniva
      1 venimmo
      1 venendo
      1 veder
      1 vede
      1 va»
      1 vani
      1 valle
      1 valchi
      1 vaga
      1 u’
      1 usar
      1 udendo
      1 t’intenda
      1 tutti
      1 tuo
      1 tu
      1 trïunfa
      1 trottare
      1 trista
      1 tre»
      1 tratto
      1 trasse
      1 trapunta
      1 trapassar
      1 traean
      1 tornar
      1 tolta
      1 tien
      1 testa
      1 tempo
      1 teco
      1 tarda
      1 tantosto
      1 tanto
      1 tanti
      1 tacette
      1 s’i’
      1 s’io
      1 s’apprezza
      1 sùbita
      1 sua
      1 strette
      1 strada
      1 stilo»
      1 stil
      1 spolpa
      1 spira
      1 spazio
      1 spaventate
      1 so»
      1 sott’
      1 sorella
      1 son
      1 sola
      1 sol
      1 significando»
      1 sia
      1 sfoghi
      1 sermone
      1 sentì
      1 sentiv’
      1 sentir
      1 sentia
      1 sembianza
      1 seguite
      1 seguaci
      1 secondo
      1 secchezza
      1 scossi
      1 scolpa
      1 sazio
      1 satolli
      1 santa
      1 sai
      1 ruote»
      1 ruina
      1 rossi
      1 rocco
      1 riveggia»
      1 riva
      1 ritenne
      1 ristretti
      1 rispuos’
      1 risponde
      1 riprenda
      1 rimorte
      1 rime
      1 rimasi
      1 rimani
      1 riguarda»
      1 rifiuta
      1 ricreduta
      1 retro
      1 regno
      1 ratto
      1 rami
      1 rallargati
      1 ragionando
      1 raffrettò
      1 quinci
      1 quelle
      1 quella
      1 quei
      1 quanto
      1 quale
      1 qua
      1 purga
      1 pur
      1 puote
      1 primo
      1 prieghi
      1 presso
      1 prendesti
      1 pregato
      1 pregano
      1 posto
      1 portar
      1 porta
      1 pomo
      1 poltre
      1 piuma
      1 pinta
      1 pilucca
      1 pianta
      1 piaga
      1 piacere
      1 piace
      1 petto
      1 petti
      1 persona
      1 perdo
      1 percuote
      1 pensando
      1 penne
      1 pasturò
      1 passi
      1 passeggia
      1 passammo
      1 parvermi
      1 paro»
      1 parole
      1 parola
      1 paro
      1 parlare
      1 parlar
      1 parea
      1 pace»
      1 ov’
      1 ove
      1 onor
      1 ond’
      1 omai
      1 om
      1 olezza
      1 ogne
      1 odo
      1 o
      1 n’ha
      1 n’andrai
      1 né
      1 nuvoli
      1 novo
      1 nove
      1 noto
      1 notar
      1 nostre
      1 nostra
      1 nomò
      1 nominar
      1 nomar
      1 nol
      1 nodo
      1 no
      1 nei
      1 ne
      1 nave
      1 nata
      1 nasconde
      1 m’avea
      1 munta
      1 movesi
      1 mover
      1 mostrò
      1 mostrar
      1 morso
      1 mormorava
      1 mormorar
      1 montare
      1 mondo
      1 molte
      1 molli
      1 modo
      1 miseri
      1 mille
      1 mezza
      1 mette
      1 metalli
      1 messer
      1 mente
      1 men
      1 marescalchi
      1 mani
      1 maladetti
      1 magrezza
      1 maggior
      1 maggio
      1 l’uom
      1 l’uno
      1 l’un
      1 l’orezza
      1 l’ombre
      1 l’erba
      1 l’aura
      1 l’anguille
      1 l’amor
      1 l’altro
      1 l’altre
      1 l’alto
      1 l’affollar
      1 lì
      1 lungo
      1 lucenti
      1 lontani
      1 loco
      1 lo
      1 lieta
      1 levò
      1 leva
      1 lento
      1 legno
      1 leggera
      1 lato
      1 lasso
      1 lasciò
      1 lagrime
      1 laci
      1 issa
      1 io»
      1 intrato
      1 intoppo
      1 intelletto
      1 innanzi
      1 impregnata
      1 hanno
      1 gusto
      1 guarda
      1 gualoppo
      1 guadagni
      1 gridar
      1 greggia
      1 grazia
      1 gravidi
      1 grande
      1 gran
      1 gradire
      1 gola
      1 giusto»
      1 giustizia
      1 genti
      1 fïa
      1 fé
      1 fuor
      1 fuma
      1 fui
      1 fue
      1 fronte
      1 fronde
      1 fretta
      1 frate
      1 frasche
      1 fossi
      1 forte
      1 forse
      1 fornace
      1 formati
      1 fore
      1 fiori
      1 filo
      1 fero
      1 fei
      1 farà
      1 farvi
      1 farsi
      1 farebbe
      1 fare
      1 fantolini
      1 fanno
      1 fan
      1 fame
      1 facea
      1 faccia
      1 esurïendo
      1 esso»
      1 esce
      1 errore
      1 era
      1 elli
      1 ebbe
      1 d’una
      1 d’i
      1 d’amore’»
      1 d’ambrosïa
      1 d’altro
      1 dïeta
      1 dì
      1 drizzò
      1 dov’
      1 dottori
      1 doppi
      1 dolce
      1 dittator
      1 ditta
      1 dito
      1 dissi
      1 disposto»
      1 disir
      1 disio
      1 disfatto
      1 discese
      1 digiuno
      1 dichiareranti
      1 dichiarar
      1 diceva
      1 dicendo
      1 dentro
      1 denti
      1 da’
      1 cui
      1 crescendo
      1 co’
      1 così
      1 corpo
      1 corona»
      1 convien
      1 continüando
      1 contezza
      1 contenti
      1 contentato
      1 contemplando
      1 cominciò
      1 cominciando
      1 combatter
      1 colui
      1 colpe
      1 colpa
      1 colli»
      1 coda
      1 ciò
      1 città
      1 ciel
      1 ci
      1 ch’è
      1 ch’om
      1 ch’i’
      1 ch’e’
      1 ch’elli
      1 ch’ella
      1 ch’ebbe
      1 ch’avete
      1 ch’al
      1 ché
      1 chiaro
      1 certo
      1 cavalier
      1 cavalchi
      1 casso
      1 caro
      1 cagione
      1 buona
      1 buon
      1 bruno
      1 bramosi
      1 braccia
      1 bestie
      1 bere
      1 ber
      1 benda»
      1 bella
      1 a’
      1 avvenne
      1 aver
      1 augei
      1 atto
      1 ascolta
      1 arbore
      1 appaga»
      1 antivedere
      1 annunziatrice
      1 anima»
      1 andate
      1 ammirazione
      1 alzar
      1 altrui
      1 altro
      1 altri
      1 alto
      1 alluma
      1 allora
      1 albori
      1 aere
      1 adesso
      1 acuta
      1 accostati
      1 accorte
      1 Virgilio
      1 Ubaldin
      1 Torso
      1 Tesëo
      1 Stazio
      1 Santa
      1 Questi»
      1 Qual
      1 Pila
      1 Piccarda
      1 Olimpo
      1 Né
      1 Notaro
      1 Non
      1 Nilo
      1 Molti
      1 Marchese
      1 Madïan
      1 L’aspetto
      1 La
      1 Io
      1 Guittone
      1 Gedeon
      1 Forlì
      1 Forese
      1 Eva
      1 El
      1 Ebrei
      1 Drizzai
      1 Come
      1 Chiesa
      1 Bonifazio
      1 Bolsena
      1 Amor
