     45 che
     26 la
     21 e
     20 in
     18 per
     18 di
     17 non
     16 de
     14 a
     11 lo
     11 del
     10 mi
     10 il
     10 come
      9 si
      8 suo
      8 le
      8 fu
      8 da
      8 al
      7 sì
      7 quel
      7 li
      6 ’l
      6 più
      6 conosce
      6 E
      5 sua
      5 prima
      5 ora
      5 mondo
      5 ma
      5 con
      4 questo
      4 quanto
      4 perché
      4 ne
      4 l’occhio
      4 luci
      4 io
      4 grazia
      4 giù
      4 fa
      4 ben
      3 è
      3 viva
      3 vince
      3 vidi
      3 vedi
      3 son
      3 quella
      3 ond’
      3 d’i
      3 dolce
      3 divina
      3 ciel
      3 ch’io
      3 buon
      3 amor
      3 Dio
      2 vole
      2 vita
      2 vista
      2 vinta
      2 villa
      2 veder
      2 tutto
      2 tutti
      2 tu
      2 suoi
      2 spene
      2 sol
      2 segue
      2 segno
      2 se
      2 quinta
      2 quelli
      2 può
      2 pinse
      2 pietra
      2 pate
      2 parte
      2 parole
      2 onde
      2 nostro
      2 noi
      2 nel
      2 morte
      2 mormorar
      2 mia
      2 mal
      2 mai
      2 l’arco
      2 là
      2 lui
      2 indi
      2 fosse
      2 forma
      2 esser
      2 cui
      2 credi
      2 credette
      2 così
      2 cose
      2 cosa
      2 colui
      2 collo
      2 ciglio
      2 cantor
      2 canto
      2 benedetto
      2 becco
      2 avvegna
      2 O
      1 ’nferno
      1 ’n
      1 ’mprenta
      1 ènne
      1 «or
      1 «La
      1 «Io
      1 «Che
      1 vïolenza
      1 vuole
      1 volontate
      1 voler
      1 volemo»
      1 voi
      1 voglia
      1 voce
      1 vivo
      1 vive
      1 vie
      1 vetro
      1 veste
      1 vero
      1 vera
      1 vento
      1 venne
      1 venire
      1 veggion
      1 veggio
      1 vedovella
      1 vedesti
      1 vedere
      1 vedemo
      1 vede
      1 u’
      1 uscissi
      1 uscir
      1 una
      1 un
      1 udir
      1 t’ammanti
      1 tutte
      1 tua
      1 tre
      1 trasmuta
      1 traslatò
      1 tota
      1 tornò
      1 tornata
      1 tondo
      1 ti
      1 testa
      1 terra
      1 tenetevi
      1 tenermi
      1 tempo
      1 tanto
      1 tal
      1 tacente
      1 tacendo
      1 tace
      1 s’innamora
      1 s’affina
      1 s’accosta
      1 s’accese
      1 s’accende
      1 suscitarla
      1 superno
      1 suono
      1 subitamente
      1 su
      1 stretti
      1 stilla
      1 squilli
      1 spirto
      1 speranza
      1 spazia
      1 sotto
      1 sospeso
      1 sono
      1 sommi
      1 sole
      1 sofferse
      1 sobranza
      1 soave
      1 silenzio
      1 sia
      1 sesto
      1 sembiò
      1 sembiante
      1 seguitar
      1 seguir
      1 seconda
      1 scrissi
      1 scintilla
      1 scende
      1 scemo
      1 sazia
      1 santi
      1 sante
      1 sampogna
      1 salissi
      1 rota
      1 rostro
      1 rispuose
      1 risplende
      1 riso
      1 riprendiene
      1 rimosso
      1 riguardar
      1 rifà
      1 riede
      1 ricorda
      1 remunerar
      1 remota
      1 regïon
      1 rege
      1 redenzion
      1 ragiono
      1 radice
      1 quivi
      1 quindi
      1 quiditate
      1 que’
      1 queste»
      1 queste
      1 questa
      1 quelle
      1 quei
      1 quasi
      1 quando
      1 quali
      1 qual
      1 puzzo
      1 pur
      1 pupilla
      1 puoser
      1 prome
      1 profonda
      1 prieghi
      1 prende
      1 predestinazion
      1 preco
      1 potëa
      1 potesse
      1 possa
      1 pose
      1 poi
      1 poco
      1 plora
      1 piedi
      1 piagne
      1 piacere
      1 piacer
      1 peso
      1 però
      1 perverse
      1 pertugio
      1 perch’
      1 penètra
      1 pensier
      1 penitenza
      1 patio
      1 pastor
      1 passuri
      1 passi
      1 parvente
      1 parve
      1 parlò
      1 parla
      1 parevi
      1 paganesmo
      1 ov’
      1 operar
      1 onda
      1 nostra
      1 nome
      1 nocivo
      1 ne’
      1 mover
      1 mostrando
      1 mossa
      1 mortali»
      1 mortali
      1 molte
      1 mise
      1 mio
      1 millesmo
      1 mezzo
      1 merto
      1 mercede
      1 mentre
      1 mente
      1 memoria
      1 medicina
      1 meco
      1 me
      1 maravigliar
      1 l’una
      1 l’ultima
      1 l’ubertà
      1 l’ossa
      1 l’opposta
      1 l’omo
      1 l’om
      1 l’odïerno
      1 l’imago
      1 l’etterno
      1 l’esperïenza
      1 l’emisperio
      1 l’arca
      1 l’aguglie
      1 l’aguglia
      1 lì
      1 lume
      1 lucidi
      1 lucendo
      1 luce
      1 lor
      1 lei
      1 leggi
      1 lapilli
      1 labili
      1 intenzion
      1 ingemmato
      1 infino
      1 indugiò
      1 indugio
      1 incominciommi
      1 imagine
      1 i
      1 guizzo
      1 guisa
      1 greco
      1 gran
      1 gradi
      1 glorïosa
      1 già
      1 giusto
      1 giudicio
      1 giudicar
      1 giorno
      1 gioco
      1 genti
      1 fé
      1 futura
      1 fur
      1 fuochi
      1 fulgore
      1 frutto
      1 fossi
      1 forza
      1 fontana
      1 fondo»
      1 fommi
      1 foco
      1 flailli
      1 fiume
      1 fisamente
      1 figura
      1 figlio
      1 fiammette
      1 feste
      1 ferma
      1 fede
      1 fece
      1 fatto
      1 fatti
      1 farmi
      1 fan
      1 e’
      1 etterno
      1 errante
      1 ell’
      1 eletti
      1 ei
      1 effetto
      1 ed
      1 d’un
      1 d’ogne
      1 d’occhi
      1 d’aspettare
      1 due
      1 duci
      1 dubbiar
      1 drittura
      1 donne
      1 dolcezza
      1 diventa
      1 distrutto
      1 disio
      1 discerna
      1 discende
      1 dipinta
      1 dinanzi
      1 dico
      1 de’
      1 destra
      1 degno
      1 degna
      1 dedutto
      1 declivo
      1 data
      1 dal
      1 credute
      1 crederebbe
      1 credendo
      1 creatura
      1 crastino
      1 costa
      1 coruscar
      1 corta
      1 corpi
      1 core
      1 corda
      1 contenta
      1 consuma
      1 consolò
      1 consiglio
      1 conosciamo
      1 concorda
      1 com’
      1 cominciaron
      1 color
      1 ciò
      1 citarista
      1 circunferenza
      1 cinque
      1 ciascuna
      1 ch’è
      1 ch’e’
      1 ch’el
      1 ch’avieno
      1 ch’a
      1 ché
      1 chiaro
      1 chiara
      1 cetra
      1 cerchio
      1 celorum
      1 cedere
      1 caro
      1 carne
      1 cari
      1 canti
      1 cantando
      1 caldo
      1 cagion
      1 caduci
      1 cacume
      1 buona
      1 bugio
      1 bocca
      1 beninanza
      1 benedette
      1 bene
      1 battezzar
      1 battesmo
      1 batter
      1 atto
      1 assai
      1 aspetti
      1 aspettava
      1 aspettar
      1 ascose
      1 ardente
      1 appresso
      1 apprende
      1 aperse
      1 angelici
      1 angeli
      1 ancora
      1 ancor
      1 amore
      1 ammirar
      1 altri
      1 altrettanto
      1 alluma
      1 allodetta
      1 aiutarla
      1 aere
      1 acquista
      1 acceso
      1 Troiano
      1 Spirito
      1 Santo
      1 Rifëo
      1 Regnum
      1 Quelle
      1 Quando
      1 Quale
      1 Poscia
      1 Poi
      1 Ora
      1 L’anima
      1 L’altro
      1 L’altra
      1 La
      1 Iddio
      1 Guiglielmo
      1 Gentili
      1 Federigo
      1 Fecesi
      1 Fai
      1 D’i
      1 Dei
      1 Cristo
      1 Cristiani
      1 Così
      1 Colui
      1 Ché
      1 Chi
      1 Carlo
