     32 la
     29 che
     27 e
     19 a
     15 di
     13 le
     12 si
     11 per
     11 o
     11 mi
     10 più
     10 non
     10 li
     10 in
      9 il
      8 sì
      7 sé
      7 suo
      7 de
      6 ti
      6 quando
      6 occhi
      6 me
      6 del
      6 da
      6 ch’io
      6 al
      5 ’l
      5 nel
      5 ne
      5 mia
      5 lo
      5 con
      4 qual
      4 là
      4 ella
      4 Beatrice
      3 volta
      3 voce
      3 vero
      3 tua
      3 tu
      3 tre
      3 terra
      3 te
      3 tal
      3 sua
      3 se
      3 poi
      3 piacer
      3 men
      3 l’acqua
      3 fuor
      3 dentro
      3 cose
      3 come
      3 altri
      2 è
      2 viste
      2 viso
      2 virtù
      2 vincer
      2 tuo
      2 taglio
      2 suoi
      2 sue
      2 sopra
      2 sola
      2 se’
      2 qui
      2 quel
      2 quali
      2 quale
      2 quai
      2 pur
      2 pria
      2 perché
      2 passi
      2 ove
      2 or
      2 noi
      2 ma
      2 l’altre
      2 loro
      2 lor
      2 io
      2 i
      2 grazia
      2 fui
      2 fiume
      2 fiera
      2 era
      2 due
      2 dovea
      2 donna
      2 disse
      2 disiri
      2 dinanzi
      2 dal
      2 cosa
      2 cor
      2 ciel
      2 ch’è
      2 bocca
      2 belle
      2 barba
      2 ancor
      2 altra
      2 ad
      2 E
      2 Come
      1 ’n
      1 ‘Asperges
      1 «sì»
      1 «dì
      1 «al
      1 «Volgi
      1 «Tiemmi
      1 «Se
      1 «Quando
      1 «Per
      1 «O
      1 «Noi
      1 «Le
      1 «Fa
      1 «Che
      1 vostro
      1 volser
      1 volgi
      1 volgendo
      1 viva
      1 vinto
      1 vidi
      1 vider
      1 vi
      1 vergognando
      1 vergogna
      1 vento
      1 velo
      1 velen
      1 vederti
      1 vedea
      1 varco
      1 uso
      1 una
      1 un
      1 udissi
      1 udirai
      1 udir
      1 udendo
      1 t’avem
      1 t’appresentò
      1 t’adombra
      1 tutte
      1 tuoi
      1 trovata
      1 trovasti
      1 troppa
      1 triste
      1 tribo
      1 tratta
      1 trasse
      1 trasmutava
      1 trarre
      1 tosto
      1 torse
      1 tolse
      1 tocca
      1 tirandosi
      1 tiemmi»
      1 testa
      1 tesa
      1 tentando
      1 tanto
      1 tanti
      1 tanta
      1 tale
      1 tacessi
      1 s’io
      1 s’aspiri
      1 suso
      1 su
      1 stupore
      1 strinsermi
      1 strale
      1 stessa
      1 stelle
      1 stav’
      1 stavan
      1 stava
      1 star
      1 stannosi
      1 spogliar
      1 spiega
      1 spense
      1 spene
      1 specchio
      1 sparte
      1 so’
      1 sovresso
      1 sotto
      1 sottesso
      1 sospiro
      1 sospiri
      1 sono
      1 sommo
      1 sommerse
      1 solvesti
      1 sol
      1 sofferse
      1 so
      1 smeraldi
      1 sie
      1 sicure
      1 siamo
      1 siam
      1 sgorgando
      1 serene
      1 sepolta
      1 sen
      1 seme
      1 seguendo
      1 segno
      1 seconda
      1 seco
      1 scriva
      1 scoppia’
      1 scoppia
      1 scola
      1 scocca
      1 saziando
      1 sassi
      1 sanza
      1 santi»
      1 salsi
      1 saldi
      1 saetta»
      1 sacro»
      1 rota
      1 robusto
      1 rivolge
      1 rivera
      1 riva
      1 rispuose
      1 risparmi
      1 ripentuti
      1 rinchiusa
      1 rimembrar
      1 rilucenti
      1 riguardando»
      1 riconoscenza
      1 riconoscendo
      1 ricominciò
      1 retro
      1 rete
      1 resistenza
      1 render
      1 rendemmi
      1 reggimenti
      1 raggiava
      1 queta
      1 questo
      1 quelle
      1 quattro
      1 quanto
      1 quand’
      1 punta
      1 punse
      1 propria
      1 profondo»
      1 primo
      1 prime
      1 presso
      1 presenti
      1 prenderai
      1 posto
      1 posarsi
      1 porte
      1 porse
      1 pon
      1 poco
      1 pinsero
      1 piena
      1 piangere
      1 petto
      1 persona
      1 penter
      1 pense
      1 pennuti
      1 penne
      1 pena
      1 peccato
      1 paura
      1 passeggiare
      1 passare
      1 paruto
      1 parte
      1 parlare
      1 pariemi
      1 pargoletta
      1 paresti
      1 paresse
      1 palido
      1 organi
      1 ordinate
      1 ond’
      1 oltre
      1 offense»
      1 novità
      1 nota
      1 nostral
      1 nostra
      1 nol
      1 ninfe
      1 nemica
      1 negassi
      1 nature
      1 natura
      1 nascose»
      1 m’offerse
      1 m’era
      1 m’avea
      1 muti
      1 mover
      1 mostraro
      1 mossi
      1 mosse
      1 morte
      1 mortale
      1 morse
      1 mondo
      1 mo
      1 miste
      1 miran
      1 mie’
      1 miei
      1 mie
      1 me’
      1 mestier
      1 mento
      1 mente
      1 menavano
      1 menarmi
      1 memorie
      1 membra
      1 maravigliava
      1 l’ortica
      1 l’ombra
      1 l’occhio
      1 l’idolo
      1 l’asta
      1 l’argomento
      1 l’arco
      1 l’anima
      1 l’aere
      1 l’accusa
      1 lume
      1 lui
      1 luci
      1 luce
      1 lieve
      1 lieta
      1 levar
      1 levai
      1 lettor
      1 lei
      1 lagrime
      1 labbra
      1 ivi
      1 isplendor
      1 intender
      1 insieme
      1 innanzi
      1 ingombra
      1 inghiottissi
      1 infin
      1 indarno
      1 ha
      1 gustava
      1 grifone
      1 grifon
      1 grave
      1 gravar
      1 gota
      1 gola
      1 giù
      1 già
      1 giva
      1 giuso
      1 giudice
      1 giocondo
      1 fé
      1 fuori
      1 fummo
      1 fronte
      1 frange
      1 fossi
      1 fosse
      1 forte
      1 formaro
      1 fora
      1 foga
      1 fiamma
      1 fero
      1 femmi
      1 fedele
      1 fece
      1 fatica
      1 fanciulli
      1 falso
      1 fallio
      1 fallaci
      1 faccia
      1 fa
      1 etterna
      1 esser
      1 errore
      1 entro
      1 ed
      1 ebbi
      1 d’un
      1 d’i
      1 dì
      1 dovieti
      1 dovevi
      1 dovessiti
      1 dovessi
      1 dove
      1 doppia
      1 dolente
      1 dolcemente
      1 doglia
      1 disvele
      1 distese
      1 dissi
      1 disio
      1 dischiusa
      1 discerna
      1 discendesse
      1 dimostrando
      1 dietro
      1 dicea
      1 dibarba
      1 danzando
      1 danza
      1 c’era
      1 cunta
      1 creature
      1 così
      1 corte
      1 corda
      1 coperse
      1 conviene
      1 convenne
      1 contraria
      1 contra
      1 conobbi
      1 congiunta»
      1 confusa
      1 confession
      1 confessi
      1 comprese
      1 cominciaro
      1 comando
      1 colpo
      1 colpa
      1 colei
      1 col
      1 ciò
      1 cisterna
      1 cibo
      1 ciascuna
      1 ché
      1 chiese
      1 chi
      1 cerro
      1 cele»
      1 catene
      1 carne
      1 caribo
      1 carco
      1 canzone
      1 cantando
      1 caldi
      1 cagion
      1 caddi
      1 breve
      1 braccio
      1 braccia
      1 bevve
      1 bene
      1 ben
      1 bellezza
      1 bella
      1 beata
      1 balestro
      1 bagnato
      1 aver
      1 avea
      1 avanzi
      1 avanti
      1 augelletto
      1 attraversati
      1 atti
      1 asseta
      1 aspettar
      1 aspetta
      1 aspersïon
      1 ascoltando
      1 ascolta
      1 arte
      1 armonizzando
      1 armi»
      1 aprissi
      1 aperto
      1 anzi»
      1 antica
      1 angelico
      1 ancelle
      1 amor
      1 amaro
      1 amar
      1 alza
      1 altrimenti
      1 altre
      1 alto
      1 allora
      1 allentò
      1 aguzzeranno
      1 agevolezze
      1 acro
      1 accusa
      1 abbracciommi
      1 Tuttavia
      1 Tratto
      1 Tanta
      1 Sotto
      1 Rispondi
      1 Quando
      1 Quali
      1 Poi
      1 Poco
      1 Piangendo
      1 Per
      1 Pensa
      1 Parnaso
      1 Ond’
      1 O
      1 Novo
      1 Non
      1 Mille
      1 Merrenti
      1 Mentre
      1 Mai
      1 Ma
      1 La
      1 Indi
      1 Iarba
      1 Era
      1 Ed
      1 Dopo
      1 Disser
      1 Di
      1 Così
      1 Confusione
      1 Con
      1 Ben
      1 Amor
