     37 che
     36 e
     23 di
     22 a
     19 per
     14 non
     11 la
     10 me
      9 più
      8 è
      8 con
      7 si
      7 lo
      7 in
      7 il
      7 al
      6 mi
      6 ma
      6 lor
      6 li
      6 le
      5 se
      5 ne
      5 io
      5 del
      5 come
      4 vos
      4 un
      4 noi
      4 nel
      4 già
      4 gente
      4 forse
      4 foco
      4 dir
      4 de
      4 Poi
      3 «O
      3 ver
      3 tu
      3 ti
      3 tanto
      3 sì
      3 sé
      3 suo
      3 sua
      3 son
      3 quanto
      3 quando
      3 pur
      3 prima
      3 parte
      3 né
      3 nome
      3 l’altra
      3 lui
      3 loro
      3 innanzi
      3 dire
      3 col
      3 chi
      2 ’n
      2 ’l
      2 ‘l
      2 vostri
      2 vei
      2 va
      2 una
      2 tutto
      2 tutti
      2 turba
      2 tosto
      2 te
      2 tal
      2 sole
      2 sia
      2 sete
      2 sen
      2 sanza
      2 rimirando
      2 quel
      2 que
      2 qual
      2 poi
      2 perché
      2 parton
      2 parlar
      2 ombra
      2 odo
      2 o
      2 mondo
      2 mio
      2 miglior
      2 maggior
      2 l’una
      2 là
      2 legge
      2 hai
      2 grido
      2 fu
      2 fossi
      2 fer
      2 fece
      2 farsi
      2 esser
      2 d’amore
      2 due
      2 dove
      2 dolci
      2 così
      2 com’
      2 colei
      2 ciascun’
      2 ch’io
      2 ch’al
      2 ch’a
      2 ché
      2 cagion
      2 ben
      2 a’
      2 avea
      2 andando
      2 ancora
      2 ampio
      2 altrui
      2 altri
      2 ad
      2 Or
      2 Ma
      2 Io
      1 “Soddoma”
      1 “Regina”
      1 ’mbestiate
      1 «questi
      1 «per
      1 «fu
      1 «Tu
      1 «Tan
      1 «Soddoma
      1 «Ne
      1 «Li
      1 «Guarda
      1 «Colui
      1 «Beato
      1 v’alberghi
      1 vuo’
      1 vostro
      1 vostre
      1 vostra
      1 volti
      1 volte
      1 volere
      1 volasser
      1 voill
      1 voi
      1 voglia
      1 voce
      1 vo
      1 visto
      1 viso
      1 vinto
      1 vien
      1 vidi
      1 via
      1 vestigio
      1 verso
      1 vergognando
      1 verghi
      1 venne
      1 vene
      1 veggio
      1 vau
      1 valor
      1 vai
      1 vacca
      1 uscir
      1 usar
      1 uopo
      1 uno
      1 umana
      1 udito
      1 udire
      1 tòrre
      1 tue
      1 tua
      1 trïunfando
      1 tristizia
      1 trascorra
      1 tornan
      1 torello
      1 terghi»
      1 temps
      1 tempo
      1 tardo
      1 s’io
      1 s’inurba
      1 s’intese
      1 s’imbestiò
      1 s’attuta
      1 s’ascose
      1 s’ascolti
      1 s’ammusa
      1 s’affatica
      1 sù
      1 sui
      1 sue
      1 su
      1 stupore
      1 stupido
      1 stremo»
      1 stolti
      1 stesso
      1 stato
      1 spirto
      1 spiar
      1 spesso
      1 spazia
      1 soverchiò
      1 sovenha
      1 sospeso
      1 sopragridar
      1 sopra
      1 som
      1 solo
      1 sol
      1 siete
      1 sicure
      1 servigio
      1 servammo
      1 sempre
      1 semo
      1 sembianti
      1 seguendo
      1 secondo
      1 schife
      1 schiera
      1 schegge
      1 scemo
      1 scarche
      1 scaltro»
      1 sazia
      1 saprei
      1 saper
      1 sangue
      1 salvatico
      1 sai
      1 rozzo
      1 rovente
      1 romanzi
      1 riveder
      1 risposta
      1 rispondi
      1 rimproverando
      1 rimirar
      1 rime
      1 rimase
      1 riguardo
      1 riguardar
      1 ricominciò
      1 reverente
      1 retro
      1 rete»
      1 restar
      1 rei
      1 reco
      1 ragion
      1 raggiando
      1 raccostansi
      1 qu’ieu
      1 qu’
      1 qui
      1 questo
      1 questi
      1 queste
      1 questa
      1 quelle
      1 quella
      1 quand’
      1 quale
      1 può
      1 purgo
      1 puesc
      1 prose
      1 pronto
      1 privilegio
      1 primo
      1 primi
      1 pria
      1 presta
      1 presso
      1 pregio
      1 pregato
      1 prec
      1 potëan
      1 poter
      1 poner
      1 poco
      1 plor
      1 pien
      1 pesce
      1 però
      1 persone
      1 pensoso
      1 peccato
      1 peccar
      1 paternostro
      1 passo
      1 passada
      1 pasciuto
      1 paruta
      1 partinci
      1 parole
      1 parlava
      1 parete
      1 parer
      1 par
      1 padre
      1 pace
      1 or
      1 oppinïone
      1 ombre
      1 offese
      1 obbrobrio
      1 n’hanno
      1 n’andavamo
      1 novità
      1 nova
      1 nostro»
      1 nostri
      1 nostre
      1 nomar
      1 nol
      1 no
      1 ni
      1 ne’
      1 m’offersi
      1 m’inchiese
      1 m’avean
      1 m’appressai
      1 m’acquista
      1 m’abellis
      1 mutava
      1 mostrato
      1 morte
      1 mortal
      1 morir
      1 montanaro
      1 montagne
      1 molt’
      1 molti
      1 moderno
      1 miei
      1 mie
      1 mezzo
      1 mente
      1 membra
      1 meglio
      1 medesmi
      1 meco
      1 mature
      1 materno
      1 marche»
      1 manifesto
      1 mai
      1 maestro
      1 madre
      1 l’uso
      1 l’orlo
      1 l’omero
      1 l’ombra
      1 l’occidente
      1 l’ha
      1 l’escalina
      1 l’arsura
      1 l’arene
      1 l’appetito
      1 l’andare
      1 l’affermar
      1 l’acqua
      1 l’accoglienza
      1 lì
      1 lussuria
      1 luogo
      1 lunga
      1 loco
      1 licito
      1 liberamente
      1 leggiadre
      1 lascia
      1 lasci
      1 lagrimando
      1 joi
      1 jausen
      1 inver’
      1 intrato
      1 insurgo
      1 inizio
      1 indizio
      1 incostri»
      1 incontro
      1 incominciai
      1 imbarche
      1 i
      1 guida
      1 guardar
      1 grue
      1 gridar
      1 gridando
      1 grazïoso
      1 grazia
      1 grato
      1 giuraro
      1 giunture
      1 giovi
      1 gel
      1 fïata
      1 furon
      1 fummo
      1 fui
      1 fredda
      1 frate»
      1 fosser
      1 fortuna
      1 formica
      1 fora
      1 fondo
      1 folor
      1 fittizio»
      1 fin
      1 figli
      1 fiamma
      1 festa
      1 fero
      1 ferman
      1 feriami
      1 fei
      1 fec’
      1 faranno
      1 far
      1 falli
      1 fai
      1 facea
      1 fabbro
      1 fa
      1 essi
      1 esperïenza
      1 esper
      1 ermafrodito
      1 entro
      1 entra
      1 elli
      1 d’un
      1 d’ogne
      1 d’essi
      1 d’avermi
      1 d’aver
      1 d’amor
      1 d’acqua
      1 durerà
      1 drizzan
      1 dopo
      1 donna
      1 dolor»
      1 dolermi
      1 divegna
      1 dito»
      1 ditemi
      1 dissi
      1 disse
      1 disparve
      1 disire
      1 dimostri
      1 dimmi
      1 diede
      1 diceami
      1 detti
      1 destro
      1 dentro
      1 denan
      1 deman
      1 davanti
      1 dar
      1 dando
      1 da
      1 cuor
      1 credon
      1 credere
      1 cortes
      1 corra»
      1 corpo
      1 convene
      1 contra
      1 contente
      1 consiros
      1 cominciò
      1 cominciarsi
      1 collegio
      1 cobrire
      1 ciò
      1 cilestro
      1 ciel
      1 cieco
      1 ciascuna
      1 ch’è
      1 ch’i’
      1 ch’avanzi
      1 ch’arte
      1 ch’apparve
      1 ch’ancor
      1 chiostro
      1 chiaro
      1 chiamar
      1 certi
      1 cerno
      1 ce
      1 carte
      1 caro»
      1 cari
      1 canti
      1 cantan
      1 cammino
      1 buon
      1 bruna
      1 brieve
      1 bisogna
      1 bigio
      1 bianco
      1 bestie
      1 basciarsi
      1 atti
      1 atteso
      1 attenti
      1 aspetto
      1 ascoltar
      1 arsi
      1 ardo
      1 aquella
      1 apparecchiava
      1 antichi
      1 anime
      1 andai
      1 ammuta
      1 amica
      1 altro
      1 altrimenti
      1 altra
      1 alti
      1 allora
      1 aiutan
      1 affina
      1 additò
      1 acerbe
      1 acciò
      1 acceso
      1 abate
      1 Versi
      1 Tosto
      1 Sì
      1 Rife
      1 Quinci
      1 Questa
      1 Quali
      1 Pasife
      1 Né
      1 Nostro
      1 Non
      1 Mentre
      1 Lì
      1 Ligurgo
      1 Letè
      1 Lemosì
      1 La
      1 Indo
      1 Ieu
      1 Guittone
      1 Guinizzelli
      1 Guido
      1 Gomorra»
      1 Farotti
      1 Etïopo
      1 El
      1 Ed
      1 E
      1 Dinne
      1 Cristo
      1 Così
      1 Cesar
      1 Arnaut
      1 Ara
      1 A
      1 
