     47 che
     36 e
     29 di
     26 la
     17 si
     13 in
     13 a
     12 non
     10 per
     10 al
      8 sì
      7 ’l
      7 le
      7 del
      7 come
      6 questo
      6 pria
      6 mi
      6 me
      6 ma
      6 io
      6 il
      5 è
      5 un
      5 suo
      5 quel
      5 là
      5 già
      5 de
      4 qui
      4 quella
      4 cui
      4 cielo
      4 ancor
      3 tua
      3 tra
      3 tosto
      3 terra
      3 tanto
      3 son
      3 questa
      3 perché
      3 parte
      3 né
      3 nel
      3 mio
      3 li
      3 i
      3 fu
      3 fece
      3 far
      3 ella
      3 dove
      3 ben
      2 ’
      2 vostro
      2 voler
      2 vita
      2 valle
      2 va
      2 tuo
      2 torna
      2 te
      2 sù
      2 sole
      2 siede
      2 seguette
      2 se
      2 sangue
      2 prima
      2 più
      2 pianta
      2 però
      2 pente
      2 papa
      2 palma
      2 ond’
      2 onde
      2 oncia
      2 ne
      2 m’era
      2 mondo
      2 mente
      2 l’ombra
      2 l’acqua
      2 lume
      2 lui
      2 lor
      2 lo
      2 lei
      2 grande
      2 giù
      2 fui
      2 fermi
      2 fatto
      2 fa
      2 esser
      2 disse
      2 da
      2 cosa
      2 convenne
      2 con
      2 com’
      2 ch’io
      2 ch’a
      2 chi
      2 cara
      2 a’
      2 altro
      2 ai
      2 ad
      2 Qui
      2 Per
      2 Ma
      2 E
      2 Di
      1 ﻿Da
      1 ’nvidia
      1 ’nganni
      1 «fuor
      1 «e
      1 «beato
      1 «Taci
      1 «La
      1 «In
      1 «Dio
      1 «Deh
      1 vuo’
      1 vulgo
      1 vostri
      1 vostre
      1 volta
      1 volse
      1 voi
      1 voglie
      1 voglia
      1 voce
      1 viver
      1 vivagni
      1 vittoria
      1 vista
      1 vinse
      1 ver’
      1 verrà
      1 vedi
      1 veder
      1 vede
      1 vanno
      1 vanità
      1 valor
      1 una
      1 t’inmii»
      1 tutto
      1 tutte
      1 turba
      1 tue
      1 tu
      1 trïunfo
      1 trista
      1 trastulla
      1 tranquilla
      1 torcete
      1 tocca
      1 testa
      1 ten
      1 tempie
      1 tal
      1 tacette
      1 s’io
      1 s’inluia»
      1 s’incinqua
      1 s’imprenta
      1 s’era
      1 s’entrò
      1 s’appunta
      1 s’acquistò
      1 s’acquista
      1 s’accompagna
      1 s’abbuia
      1 sé
      1 surge
      1 suole
      1 sue
      1 sua
      1 su
      1 studia
      1 stella
      1 state
      1 stanco
      1 splendori
      1 spirto»
      1 spirto
      1 spera
      1 specchi
      1 spande
      1 spanda»
      1 spalle
      1 sovra
      1 sorte
      1 sono
      1 sommo
      1 solo
      1 sol
      1 simil
      1 signoreggia
      1 significava
      1 sigilla
      1 sen
      1 sempre
      1 semenza
      1 sembiante
      1 sei
      1 sconcia
      1 scintilla
      1 scese
      1 satisface
      1 sarà
      1 sarebbe
      1 sappi
      1 saper
      1 santo
      1 rïempie
      1 rota
      1 rivolta
      1 riso
      1 rinchiusa
      1 rimira
      1 rimase
      1 ride
      1 richiude
      1 ricevesse
      1 ricever
      1 retro
      1 relinqua
      1 refulgo
      1 refulge
      1 refletter
      1 ragna
      1 raggio
      1 radice
      1 questi
      1 quelli
      1 quei
      1 quasi
      1 quando
      1 qual
      1 puot’
      1 provide
      1 prova
      1 propinqua
      1 profondo
      1 produce
      1 proceder
      1 prete
      1 presente
      1 prava
      1 posso
      1 possa
      1 porto
      1 porti
      1 poi
      1 poco
      1 pii
      1 piene
      1 pianto
      1 piacermi
      1 pesasse
      1 percuota
      1 perch’
      1 penso»
      1 pensieri
      1 pensa
      1 pelo
      1 pecore
      1 pastore
      1 pastor
      1 parti
      1 parria
      1 parole
      1 parlar
      1 pare
      1 palude
      1 paion
      1 paese
      1 orto
      1 ordine
      1 oltre
      1 ogne
      1 occhi
      1 occaso
      1 nulla
      1 nova
      1 noto
      1 nota
      1 nostr’
      1 nostro
      1 nome
      1 noiando
      1 noia
      1 noi
      1 nate
      1 narrò
      1 nacqui
      1 m’è
      1 m’intuassi
      1 m’ebbe
      1 muover
      1 mostrarsi
      1 molt’
      1 moia
      1 mise
      1 milizia
      1 miei
      1 mia
      1 metti
      1 meridïano
      1 mera
      1 memoria
      1 medesma
      1 mar
      1 malta
      1 maladetto
      1 magni
      1 maggior
      1 l’una
      1 l’orizzonte
      1 l’omo
      1 l’empio
      1 l’avoltero»
      1 l’arte
      1 l’altre
      1 l’altra
      1 l’alta
      1 l’ali
      1 l’Evangelio
      1 lupo
      1 lumera
      1 luculenta
      1 luce
      1 litorano
      1 liti
      1 lietamente
      1 libere
      1 leva
      1 letiziar
      1 letizia
      1 lasciar
      1 lascia
      1 larga
      1 italica
      1 intende
      1 inghirlanda
      1 ingannate
      1 infin
      1 indulgo
      1 incominciaro
      1 ha
      1 grado
      1 gloria
      1 giusto
      1 giudicante
      1 giova
      1 gioia
      1 genti
      1 gente
      1 fé
      1 fu’
      1 fuor
      1 fuochi
      1 fulgor
      1 fuia
      1 fosse
      1 forte
      1 forse
      1 fori
      1 fontane
      1 fiore
      1 fin
      1 figlia
      1 fieno
      1 fien
      1 fia
      1 fe’
      1 ferrarese
      1 fecemi
      1 favorò
      1 fatture
      1 fattore
      1 fammi
      1 fama
      1 facen
      1 facella
      1 face
      1 essere
      1 era
      1 entro
      1 empie
      1 elette
      1 ed
      1 ecco
      1 eccellente
      1 ebbe
      1 d’esta
      1 drizzando
      1 dover
      1 dovea
      1 dottor
      1 doni
      1 donerà
      1 disvïate
      1 diss’
      1 dissi
      1 disio
      1 disii
      1 discordanti
      1 discernesi
      1 dir
      1 dimanda
      1 difalta
      1 dicete
      1 derelitti
      1 delusa
      1 dee
      1 davante
      1 danni
      1 dal
      1 c’ha
      1 cuori
      1 crude
      1 cotanto
      1 cotai
      1 così
      1 corto
      1 cortese
      1 core
      1 convene
      1 contrada
      1 contra
      1 congiunta
      1 conformi
      1 compenso
      1 colui
      1 colpa
      1 colle
      1 col
      1 coculla
      1 ciò
      1 città
      1 cimitero
      1 ciel
      1 ch’ordinò
      1 ch’i’
      1 ch’eran
      1 ch’altr’
      1 ch’altra
      1 ch’addorna
      1 ché
      1 chiarito
      1 chiarir
      1 chiamata
      1 certificato
      1 centesimo
      1 carpir
      1 caro
      1 cardinali
      1 canto
      1 cantava
      1 cangerà
      1 cammin
      1 caldo
      1 cagion
      1 buoni»
      1 bigoncia
      1 bene
      1 bella
      1 beato
      1 battuta
      1 balasso
      1 bagna
      1 attendere’
      1 assunta
      1 assenso
      1 assalto
      1 arse
      1 appresso
      1 aperse
      1 anno
      1 anni»
      1 anime
      1 ancora
      1 alto
      1 alta
      1 alma
      1 allor
      1 ali
      1 alcun
      1 agni
      1 affetto
      1 acqua
      1 Vincenza
      1 Vaticano
      1 Tu
      1 Troppo
      1 Troni
      1 Toscano
      1 Terra
      1 Tagliamento
      1 Sù
      1 Sol
      1 Sile
      1 Sicheo
      1 Santa
      1 Rïalto
      1 Roma
      1 Rodopëa
      1 Raab
      1 Pietro
      1 Piava
      1 Piangerà
      1 Padova
      1 Or
      1 Onde
      1 Non
      1 Nazarette
      1 Macra
      1 L’altra
      1 Li
      1 La
      1 Iosüè
      1 Iole
      1 Già
      1 Genovese
      1 Gabrïello
      1 Folco
      1 Feltro
      1 Ed
      1 Ebro
      1 D’una
      1 Dunque
      1 Dio
      1 Demofoonte
      1 Decretali
      1 Da
      1 Cunizza
      1 Cristo
      1 Creusa
      1 Clemenza
      1 Carlo
      1 Cagnan
      1 Bëatrice
      1 Buggea
      1 Brenta
      1 Ben
      1 Belo
      1 Alcide
      1 Ahi
      1 Adice
      1 Ad
      1 A
