     47 e
     26 che
     19 la
     16 in
     14 ’l
     10 a
      9 perché
      8 è
      8 non
      7 tu
      7 lo
      7 di
      6 si
      6 per
      6 come
      6 Dio
      5 sua
      5 poi
      5 nel
      5 natura
      5 li
      5 forza
      5 da
      5 con
      4 tre
      4 ti
      4 sì
      4 sé
      4 son
      4 se
      4 men
      4 io
      4 fa
      4 de
      4 chi
      4 cerchio
      4 ben
      3 via
      3 un
      3 tua
      3 suo
      3 su
      3 quel
      3 più
      3 però
      3 onde
      3 o
      3 mi
      3 mente
      3 là
      3 il
      3 giron
      3 frode
      3 del
      3 Ma
      2 vista
      2 una
      2 tutto
      2 spregiando
      2 sono
      2 solvi
      2 secondo
      2 ragione
      2 quella
      2 qualunque
      2 pur
      2 prossimo
      2 primo
      2 poco
      2 ov’
      2 ogne
      2 offende
      2 modo
      2 malizia
      2 maestro
      2 ma
      2 lui
      2 le
      2 incontenenza
      2 i
      2 ha
      2 grado
      2 far
      2 esser
      2 elli
      2 dove
      2 divina
      2 disse
      2 dietro
      2 dentro
      2 dal
      2 cor
      2 col
      2 bontade
      2 avere
      2 assai
      2 arte
      2 al
      2 Ed
      1 ’ntende
      1 ’ntelletto
      1 ’ngegno
      1 ’n
      1 ‘Anastasio
      1 vïolenti
      1 vïolenta
      1 vostr’
      1 vostro
      1 vostra
      1 vole
      1 vita
      1 vinco
      1 vidi
      1 ver
      1 vento
      1 venimmo
      1 vendetta
      1 vedrai
      1 usare
      1 udirai
      1 tutti
      1 turbata
      1 tuo
      1 troverai
      1 trova
      1 tristo
      1 trasse
      1 trade
      1 tormenta
      1 tollette
      1 tene
      1 tempo
      1 tardo
      1 tanto
      1 tal
      1 s’oblia
      1 s’incontran
      1 s’ausi
      1 s’annida
      1 sù
      1 sòle
      1 suoi
      1 suggella
      1 stipa
      1 stan
      1 spirti
      1 spiace
      1 spezïal
      1 spene
      1 sovra
      1 sotto
      1 sostegnon
      1 sopra
      1 soperchio
      1 sola
      1 sol
      1 simonia
      1 simile
      1 sien
      1 siede
      1 sentenza
      1 senso
      1 seguimi
      1 segue
      1 seguace
      1 segno
      1 scritta
      1 schiere
      1 scender
      1 saver
      1 sassi
      1 sanza
      1 sani
      1 ruine
      1 ruffian
      1 rotte
      1 roggia
      1 rivolvi
      1 ripa
      1 rimembra
      1 riguardo
      1 riguardi
      1 retro
      1 rechiti
      1 rechi
      1 raccostammo
      1 quivi
      1 que’
      1 questo
      1 questi
      1 queste
      1 questa
      1 quell’
      1 quelli
      1 quelle
      1 quei
      1 quasi
      1 quanto
      1 quando
      1 qual
      1 quai
      1 pòne
      1 può
      1 puzzo
      1 pure
      1 punto
      1 puniti
      1 proprio
      1 profondo
      1 procede
      1 pro
      1 priva
      1 principio
      1 prima
      1 prender
      1 prende
      1 predon
      1 pote
      1 possiede
      1 popol
      1 pon
      1 pioggia
      1 pingue
      1 pietre
      1 pien
      1 piange
      1 piace
      1 pertratta
      1 persone
      1 perduto
      1 penta
      1 penso
      1 penitenza
      1 passi
      1 parte
      1 parole
      1 par
      1 papa
      1 palude
      1 oramai
      1 ond’
      1 omo
      1 omicide
      1 oltra
      1 ogni
      1 note
      1 nota
      1 nostro
      1 no
      1 ne’
      1 nepote
      1 nella
      1 negando
      1 m’aggrata
      1 morsa
      1 mondo
      1 molte
      1 mira
      1 mio
      1 minore
      1 minor
      1 mena
      1 me
      1 matta
      1 martelli
      1 man
      1 male
      1 maladetti
      1 mal
      1 l’usuriere
      1 l’uom
      1 l’universo
      1 l’orribile
      1 l’orizzonta
      1 l’omo
      1 l’estremità
      1 l’arte
      1 l’altro
      1 lusinghe
      1 loro
      1 lordura
      1 lor
      1 lingue
      1 lassi
      1 ladroneccio
      1 ira
      1 ipocresia
      1 intendi
      1 ingiuria
      1 incendi
      1 imborsa
      1 guizzan
      1 guastatori
      1 guardo
      1 groppo
      1 grand’
      1 gran
      1 gitta
      1 gironi
      1 gir
      1 giocondo
      1 giace
      1 gente
      1 fuor
      1 frodolenti
      1 fonde
      1 foggia
      1 fine
      1 fin
      1 fiere
      1 fidanza
      1 fida
      1 fiato
      1 fia
      1 ferute
      1 felli
      1 fede
      1 favella
      1 falsità
      1 facultade
      1 facevan
      1 etterno
      1 ei
      1 ed
      1 d’un’alta
      1 d’un
      1 d’amor
      1 due
      1 dubbiar
      1 dritta’
      1 dov’
      1 dopo
      1 dolor
      1 dogliose
      1 di’
      1 divino
      1 diverse
      1 distinto
      1 distingue
      1 diss’
      1 dissi
      1 dispregia
      1 disposizion
      1 dismonta
      1 discente
      1 dir
      1 dipartiti
      1 dimmi
      1 dico
      1 dicea
      1 de’
      1 deïtade
      1 delira
      1 dannose
      1 danno
      1 crudele
      1 crucciata
      1 cria
      1 cotesti
      1 cotale
      1 costrutto
      1 costretti
      1 cose
      1 coscïenza
      1 corso
      1 coperchio
      1 conviene
      1 convien
      1 convene
      1 contrista
      1 contenti
      1 consunto
      1 compenso
      1 cominciò
      1 colui
      1 ciò
      1 città
      1 cielo
      1 ciel
      1 ciascun
      1 ci
      1 ch’è
      1 ch’usura
      1 ch’odio
      1 ch’incida
      1 ch’in
      1 ch’e’
      1 ch’a
      1 ché
      1 chiara
      1 cerchietti
      1 carte
      1 biscazza
      1 biasimo
      1 bestialitade
      1 bestemmiando
      1 beni
      1 batte
      1 basti
      1 baràtro
      1 baratti
      1 balzo
      1 avello
      1 avanzar
      1 assale
      1 aspre
      1 aperta
      1 amor
      1 altrui
      1 altrove
      1 altro
      1 altra
      1 aggiunto
      1 affattura
      1 ad
      1 acquista
      1 accatta
      1 abisso
      1 Vedi
      1 Tutti
      1 Soddoma
      1 Se
      1 Questo
      1 Puote
      1 Puossi
      1 Pesci
      1 Perché
      1 Per
      1 O
      1 Non
      1 Morte
      1 Maestro
      1 Lo
      1 La
      1 In
      1 Genesì
      1 Fotin
      1 Fisica
      1 Filosofia
      1 Figliuol
      1 Etica
      1 E
      1 D’ogne
      1 Dite
      1 Di
      1 Da
      1 Così
      1 Coro
      1 Carro
      1 Caorsa
      1 Ancora
      1 Alcun
      1 A
