5     Pur. 15
2     Pur. 24
2     Par. 1
2     Inf. 10
1     Pur. 9
1     Pur. 5
1     Pur. 26
1     Pur. 19
1     Pur. 18
1     Pur. 14
1     Pur. 11
1     Par. 23
1     Par. 15
1     Inf. 9
1     Inf. 32
1     Inf. 24
1     Inf. 16
1     Inf. 14
1     Inf. 12
0     Pur. 8
0     Pur. 7
0     Pur. 6
0     Pur. 4
0     Pur. 33
0     Pur. 32
0     Pur. 31
0     Pur. 30
0     Pur. 3
0     Pur. 29
0     Pur. 28
0     Pur. 27
0     Pur. 25
0     Pur. 23
0     Pur. 22
0     Pur. 21
0     Pur. 20
0     Pur. 2
0     Pur. 17
0     Pur. 16
0     Pur. 13
0     Pur. 12
0     Pur. 10
0     Pur. 1
0     Par. 9
0     Par. 8
0     Par. 7
0     Par. 6
0     Par. 5
0     Par. 4
0     Par. 33
0     Par. 32
0     Par. 31
0     Par. 30
0     Par. 3
0     Par. 29
0     Par. 28
0     Par. 27
0     Par. 26
0     Par. 25
0     Par. 24
0     Par. 22
0     Par. 21
0     Par. 20
0     Par. 2
0     Par. 19
0     Par. 18
0     Par. 17
0     Par. 16
0     Par. 14
0     Par. 13
0     Par. 12
0     Par. 11
0     Par. 10
0     Inf. 8
0     Inf. 7
0     Inf. 6
0     Inf. 5
0     Inf. 4
0     Inf. 33
0     Inf. 33
0     Inf. 31
0     Inf. 30
0     Inf. 3
0     Inf. 29
0     Inf. 28
0     Inf. 27
0     Inf. 26
0     Inf. 25
0     Inf. 23
0     Inf. 22
0     Inf. 21
0     Inf. 20
0     Inf. 2
0     Inf. 19
0     Inf. 18
0     Inf. 17
0     Inf. 15
0     Inf. 13
0     Inf. 11
0     Inf. 1
