     10 io
      9 non
      8 mio
      8 così
      6 poco
      6 occhi
      5 terra
      5 qui
      5 ne
      5 me
      5 fa
      4 sé
      4 mia
      4 fui
      4 ch’io
      4 Io
      3 via
      3 sù
      3 son
      3 questa
      3 pur
      3 pena
      3 noi
      3 lei
      3 giustizia
      3 dal
      3 cui
      3 col
      3 chi
      3 Dio
      2 «O
      2 volsi
      2 vita
      2 tutto
      2 tutta
      2 tua
      2 tal
      2 suo
      2 sovra
      2 sola
      2 sol
      2 quanto
      2 quand’
      2 prima
      2 pianger
      2 parlare
      2 ond’
      2 omai
      2 nostro
      2 nome
      2 monte
      2 mezzo
      2 man
      2 l’anime
      2 lui
      2 lor
      2 fu
      2 elli
      2 el
      2 ed
      2 dì
      2 disse
      2 disio
      2 dinanzi
      2 dicea
      2 com’
      2 colui
      2 ciò
      2 anima
      2 amore
      2 alti
      2 Virgilio
      2 Poi
      1 ’
      1 ‘Qui
      1 ‘Neque
      1 ‘Adhaesit
      1 —quando
      1 «quell’antica
      1 «non
      1 «io
      1 «Venite
      1 «Vedesti»
      1 «Surgi
      1 «Spirto
      1 «Se
      1 «Qual
      1 «Perché
      1 «Per
      1 «Io
      1 «Drizza
      1 «Con
      1 «Che
      1 «Almen
      1 vòlti
      1 vuo’
      1 vuol
      1 vo’
      1 vostre
      1 vostra
      1 volto
      1 volta
      1 volseci
      1 volge
      1 volete
      1 volea
      1 voi
      1 voci
      1 vivendo
      1 visïon
      1 vista
      1 vinto
      1 vieni
      1 vidi
      1 verso
      1 venìa
      1 ventre
      1 ventilonne
      1 venne
      1 venite
      1 veggiono
      1 vedi
      1 vedesti
      1 veder
      1 varca»
      1 vago
      1 va
      1 udi’
      1 t’impetri
      1 t’ho
      1 t’arresti
      1 tutti
      1 tutte
      1 troviam
      1 trovar
      1 tre
      1 trassimi
      1 tra
      1 tosto
      1 torse»
      1 tornar
      1 titol
      1 tira
      1 terrene
      1 tene
      1 teco
      1 tarda
      1 tanta
      1 talor
      1 s’intendea
      1 s’ausa
      1 s’adima
      1 s’aderse
      1 s’acquetava
      1 s’accorse
      1 s’accese
      1 svegliò
      1 suso
      1 surger
      1 suono
      1 successor
      1 stretti
      1 strega
      1 staremo
      1 stanza
      1 sta
      1 speranza
      1 spense
      1 sovr’
      1 sosta
      1 sospiri
      1 sospeccion
      1 sormontati
      1 son»
      1 sono
      1 some
      1 solo
      1 sogno
      1 soffriri
      1 soave
      1 smarrito
      1 slega
      1 sien
      1 sicuri
      1 sguardo
      1 serena
      1 sentir
      1 sentia
      1 sente
      1 senno
      1 sen
      1 sempre
      1 sembran
      1 segnor
      1 se
      1 scorta
      1 scopersi
      1 scias
      1 scialba
      1 saprai
      1 sanza
      1 santo
      1 santa
      1 sangue
      1 saliri»
      1 salir
      1 sacro
      1 rote
      1 roman
      1 roccia
      1 rivolto
      1 rivolgi
      1 rivolga
      1 rispuose
      1 risposto
      1 rimorse»
      1 rimasa»
      1 richiusa
      1 reverire
      1 reni
      1 rege
      1 ragiono
      1 rado
      1 quod
      1 quinto
      1 questa»
      1 quale
      1 pòssi
      1 può
      1 puzzo
      1 purgazion
      1 puoi
      1 punto
      1 punita
      1 prova’
      1 protende
      1 pria
      1 presta
      1 presi
      1 prendea
      1 prende
      1 pregò
      1 potiesi
      1 potei
      1 posso
      1 poscia
      1 portava
      1 ponte
      1 poeta
      1 podestate
      1 pié
      1 piè
      1 piuma
      1 pieni
      1 piena
      1 piega
      1 piedi
      1 piangea
      1 piagne
      1 piacere
      1 piacer
      1 pesa
      1 perdési
      1 perch’
      1 pensier
      1 pensar
      1 penne
      1 pavimento
      1 pastore
      1 pasto
      1 partita
      1 partirmi»
      1 parte
      1 parole
      1 parola
      1 parlonne
      1 parlar
      1 pareti
      1 parean
      1 orïente
      1 or
      1 operar
      1 onesta
      1 onde
      1 omè
      1 n’uscia
      1 n’andai
      1 né
      1 nulla
      1 nubent’
      1 novo
      1 novella
      1 notte
      1 notar
      1 nostri
      1 nostra
      1 ne’
      1 nascosto
      1 m’assentì
      1 mostravami
      1 mossi»
      1 mossi
      1 mortal
      1 monche
      1 modo
      1 misera
      1 mirava
      1 mira
      1 messe»
      1 mese
      1 merse
      1 men
      1 membra
      1 meco
      1 mea’
      1 maturo
      1 matura
      1 marinari
      1 marca
      1 mar
      1 manto
      1 malvagia
      1 mai
      1 magne»
      1 maggior
      1 maestro
      1 macigno
      1 l’uom
      1 l’ora
      1 l’occhio
      1 l’ha
      1 l’apria
      1 l’appago»
      1 l’aperta
      1 l’angel
      1 l’altro
      1 l’altre
      1 l’alto
      1 l’ali
      1 l’alba
      1 lì
      1 lèvati
      1 lunghesso
      1 luna
      1 lugent’
      1 logoro
      1 lingua
      1 lieto
      1 levai
      1 legati
      1 irmi
      1 inver’
      1 intepidar
      1 intento
      1 intendesti
      1 innanzi
      1 inginocchiato
      1 infin
      1 indi
      1 incominciò
      1 immobili
      1 ho
      1 hai
      1 ha
      1 guida
      1 guercia
      1 guati»
      1 guarda
      1 grido
      1 gran
      1 giù
      1 giusto
      1 giuso
      1 giron
      1 giro
      1 gira
      1 giacer
      1 giacendo
      1 geomanti
      1 gente
      1 gambe
      1 fronte
      1 freddo
      1 fredde
      1 frate»
      1 fosti
      1 fori»
      1 fiumana
      1 fitti
      1 fisso
      1 fieramente
      1 fia
      1 fenno
      1 fendendo
      1 fende
      1 femmina
      1 fec’
      1 fatto
      1 fare
      1 far
      1 fango
      1 falcon
      1 facea
      1 faccia
      1 evangelico
      1 etterno
      1 esso
      1 esser
      1 essempro
      1 errar
      1 eran
      1 entre»
      1 eletti
      1 ego
      1 d’ora
      1 dïurno
      1 duro
      1 duri
      1 due
      1 drizzava
      1 drizzate
      1 dritto
      1 drappi
      1 dove
      1 dossi
      1 donne
      1 donna
      1 dolce
      1 distorta
      1 distesi»
      1 dismago
      1 disciolto
      1 dischiuso
      1 disagia
      1 dirmi
      1 diretri
      1 dire
      1 dir
      1 dignitate
      1 dichiara
      1 dicesti
      1 dicendo
      1 dice
      1 destre
      1 dar
      1 c’ha
      1 cura
      1 creatura
      1 cose
      1 coscïenza
      1 cosa
      1 core
      1 conversïone
      1 converse
      1 consolar
      1 conservo
      1 confusa
      1 conforta
      1 cominciava
      1 cominciai
      1 colore
      1 colorava
      1 colei
      1 cima
      1 cigno
      1 cielo
      1 ciascun
      1 ch’ell’
      1 ch’avran
      1 ch’avarizia
      1 ché
      1 chiedea
      1 cerchiar
      1 cenno
      1 casa
      1 carca
      1 canto
      1 cantava
      1 cantar
      1 cammin
      1 calor
      1 calcagne
      1 cagion»
      1 buona
      1 buon
      1 bugiarda
      1 bruna—
      1 bocca
      1 benigno
      1 bene
      1 ben
      1 bella
      1 beati
      1 batti
      1 balba
      1 avvisai
      1 avrei
      1 avete
      1 avea
      1 avarizia
      1 avara
      1 ascoltando
      1 arco
      1 apparve
      1 aperte
      1 andavam
      1 amor
      1 amendue
      1 amara
      1 altri
      1 alto
      1 aggrava
      1 affermando
      1 ad
      1 Vidi
      1 Vattene
      1 Un
      1 Ulisse
      1 Sù
      1 Sïestri
      1 Sì
      1 Sire
      1 Seguendo
      1 Se
      1 Saturno
      1 Quel
      1 Quale
      1 Petri
      1 Nepote
      1 Ne
      1 Mosse
      1 Maggior
      1 L’altra
      1 La
      1 Intra
      1 Fortuna
      1 Fino
      1 Ed
      1 Così
      1 Con
      1 Com’
      1 Come
      1 Chiaveri
      1 Chi
      1 Bastiti
      1 Ancor
      1 Alagia
