     14 non
      7 voi
      7 noi
      7 cui
      6 suo
      5 però
      5 dentro
      4 se
      4 ogne
      4 o
      4 mio
      4 io
      4 gente
      4 disse
      4 ch’io
      4 amor
      4 ad
      3 sé
      3 ragion
      3 questa
      3 quell’
      3 pur
      3 ne
      3 me
      3 matera
      3 ha
      3 far
      3 cosa
      3 avea
      3 ancor
      2 ’ntelletto
      2 ’
      2 voglia
      2 vita
      2 virtù
      2 verace
      2 veder
      2 vede
      2 va
      2 uopo
      2 tosto
      2 studio
      2 sanza
      2 retro
      2 quando
      2 padre
      2 onde
      2 novo
      2 notte
      2 mente
      2 mal
      2 mai
      2 l’animo
      2 lei
      2 innata
      2 gridavan
      2 fuor
      2 forse
      2 forma
      2 fine
      2 figlio
      2 esser
      2 due
      2 corse
      2 com’
      2 ciascun
      2 buono
      2 buona
      2 buon
      2 ben
      2 amore
      2 altro
      2 altri
      2 Poi
      2 Però
      2 Or
      2 Ma
      2 La
      2 Io
      2 Beatrice
      1 ﻿Posto
      1 ’mperio
      1 ‘Forse
      1 «ver’
      1 «m’hanno
      1 «Volgiti
      1 «Vieni
      1 «Ratto
      1 «Quanto
      1 «Prima
      1 «O
      1 «Maria
      1 «Maestro
      1 «Le
      1 «Drizza»
      1 vuole
      1 volta
      1 volger
      1 volere
      1 voler
      1 vive
      1 vista
      1 villania
      1 villa
      1 viglia
      1 vidi
      1 vide
      1 vi
      1 vertute
      1 vero»
      1 veritate
      1 verdi
      1 venir
      1 venendo
      1 vegna
      1 vedine
      1 vedesse
      1 vaneggiai
      1 vana
      1 vaghezza
      1 unita
      1 t’aspetta
      1 tuttor
      1 tutti
      1 tutta
      1 turba
      1 tuo
      1 tue
      1 tua
      1 troverai
      1 troppo
      1 tristo
      1 trasmutai
      1 trascorso
      1 tragge
      1 tra
      1 torta
      1 tolta
      1 timido
      1 tieni
      1 tepidezza
      1 tener
      1 ten
      1 tempo
      1 tarda
      1 tant’
      1 tale
      1 tacque
      1 tacea
      1 s’io
      1 s’ei
      1 s’avviva
      1 s’apriva
      1 s’aperse
      1 s’amore
      1 s’accorser
      1 s’accorse
      1 s’accende
      1 sù
      1 sè
      1 sustanzïal
      1 surga
      1 sue
      1 subitamente
      1 strade
      1 stessa
      1 stelle
      1 stava
      1 spirti
      1 spiritale
      1 spiega
      1 specifica
      1 spalle
      1 sovr’
      1 sovra
      1 sotto
      1 sono
      1 sonnolenza
      1 sonnolento
      1 soma
      1 sole
      1 sol
      1 sogno
      1 soglia
      1 soggiogare
      1 sofferse
      1 soccorso
      1 so
      1 siam
      1 sia
      1 setta
      1 sete
      1 sentita
      1 sempre
      1 seguace
      1 segno
      1 secondo
      1 secchion
      1 sape
      1 salire
      1 rivolto
      1 ritenerlo
      1 ritener
      1 rispuos’
      1 rinverda»
      1 riluca
      1 ricopersi
      1 ricompie
      1 ricolta
      1 restar
      1 rei
      1 reduci
      1 rede
      1 ratto
      1 ragione
      1 ragionando
      1 ragionamento
      1 ragiona
      1 rade
      1 raccoglia
      1 quistioni
      1 qui
      1 questo
      1 questi
      1 queste
      1 quelli
      1 quelle
      1 quei
      1 quasi
      1 quant’
      1 quanto
      1 quale
      1 qua
      1 puote
      1 punse
      1 principio
      1 primi
      1 prime
      1 prima
      1 presto
      1 presso
      1 preso
      1 prende»
      1 prego
      1 pregno
      1 potiersi
      1 potem
      1 posto
      1 poss’
      1 possa
      1 posa
      1 porse
      1 poniam
      1 podestate
      1 poco
      1 piè
      1 piglia
      1 pieni
      1 piegare
      1 piega
      1 piede
      1 pianta
      1 piangerà
      1 piangendo
      1 piana
      1 piacque
      1 piacere
      1 piacer
      1 piace
      1 pertugio»
      1 perdona
      1 perda
      1 pensiero
      1 pensamento
      1 peggio
      1 pastor
      1 passo
      1 parta
      1 parole
      1 parlare
      1 parlar
      1 parlando
      1 parer
      1 parea
      1 opra
      1 operare
      1 operar
      1 ond’
      1 omo
      1 ombre
      1 ombra
      1 om
      1 ogn’
      1 offerto
      1 offerse»
      1 occhi
      1 né
      1 nova
      1 notizie
      1 nostre
      1 nostra
      1 noma
      1 nobile
      1 negligenza
      1 necessitate
      1 natura
      1 nata
      1 nascosa
      1 nacquero
      1 nacque
      1 m’ha
      1 muoverci
      1 movesi
      1 movea
      1 moto
      1 morta
      1 morso»
      1 moralità
      1 montagna
      1 mondo
      1 monastero
      1 mobile
      1 mise
      1 mie
      1 mia
      1 mezza
      1 messo
      1 merto»
      1 merto
      1 meritare
      1 mele
      1 mar
      1 mantoana
      1 manifesto
      1 magna
      1 l’error
      1 l’assenso
      1 l’anima
      1 l’alto
      1 l’agute
      1 l’affetto
      1 l’affanno
      1 l’accidïa
      1 l’abbi
      1 lungo
      1 luna
      1 lume
      1 lui
      1 luci
      1 lode
      1 loco
      1 libertate
      1 libero
      1 lega
      1 laudabil
      1 lasciaro
      1 inver’
      1 intesi
      1 intero
      1 intenzione
      1 intende
      1 ingegno»
      1 infiamma
      1 indugio
      1 indi
      1 guardava
      1 guarda
      1 grazia
      1 grava’
      1 gloria
      1 giusto
      1 giustizia
      1 giron
      1 gioire
      1 gentil
      1 furon
      1 furia
      1 fur
      1 fuori
      1 fui
      1 fue
      1 fu
      1 frugava
      1 fronde
      1 fretta
      1 fossa
      1 fondo
      1 foco
      1 fo
      1 fino
      1 fin
      1 fieti
      1 fia
      1 fervore
      1 fede
      1 fatto
      1 fatta
      1 fanno
      1 falca
      1 facea
      1 face
      1 fa
      1 essa
      1 entra
      1 elli
      1 effetto
      1 ed
      1 d’uno
      1 d’esta
      1 d’avere
      1 d’Anchise
      1 dura
      1 duci
      1 duca
      1 dubbiar
      1 dritta
      1 dove
      1 dottore
      1 dopo
      1 dolente
      1 dolce
      1 divise
      1 diversi
      1 dite
      1 disire
      1 discoverto
      1 discerno
      1 dir
      1 diposta
      1 dinanzi
      1 dimostri
      1 dimostra
      1 dimandar
      1 dicean
      1 dicea
      1 desto
      1 descriva
      1 dando
      1 dal
      1 creato
      1 cotal
      1 così
      1 correndo
      1 correa
      1 corpo
      1 contro
      1 contraro»
      1 contento
      1 consiglia
      1 color
      1 colletta
      1 col
      1 ciò
      1 ciel
      1 ciechi
      1 ch’avvera
      1 ché
      1 chiaro
      1 certo
      1 cera»
      1 cavalca
      1 caro
      1 carcar
      1 cape
      1 calca
      1 cade
      1 buoni
      1 bugio
      1 buca
      1 biasmo
      1 avuta
      1 avesser
      1 atto
      1 attento
      1 ardir
      1 arda
      1 arbitrio
      1 appresso
      1 apprensiva
      1 appetibili
      1 apparer
      1 appar
      1 aperta
      1 ape
      1 andaro
      1 andar
      1 amor»
      1 amori
      1 amata
      1 amar
      1 altura
      1 altra
      1 allor
      1 aguto
      1 adesso
      1 accoglie
      1 abate
      1 Zeno
      1 Vostra
      1 Verona
      1 Tosto
      1 Teban
      1 Sardi
      1 San
      1 Roma
      1 Quest’
      1 Pietola
      1 Parole
      1 Ond’
      1 Onde
      1 Ogne
      1 Noi
      1 Milan
      1 Marsilia
      1 L’animo
      1 Ispagna»
      1 Ismeno
      1 Iordan
      1 Ilerda
      1 Ed
      1 Di
      1 Corsi
      1 Color
      1 Cesare
      1 Barbarossa
      1 Bacco
      1 Asopo
