     26 non
      7 né
      6 se
      6 mai
      6 chi
      5 sé
      5 suo
      5 io
      4 lui
      4 giustizia
      4 fa
      3 vedrà
      3 tutti
      3 son
      3 quanto
      3 mondo
      3 l’ali
      3 esser
      3 ad
      3 Vedrassi
      3 Lì
      3 Cristo
      2 vostro
      2 vostri
      2 voi
      2 voce
      2 veduta
      2 vede
      2 valor
      2 terra
      2 tal
      2 suoi
      2 sovra
      2 segno
      2 sanza
      2 regno
      2 questo
      2 quei
      2 quando
      2 ov’
      2 o
      2 ne
      2 natura
      2 molto
      2 molti
      2 l’opere
      2 lì
      2 lei
      2 lascia
      2 image
      2 ha
      2 giusto
      2 giudicio
      2 fu
      2 etterno
      2 esso
      2 due
      2 divina
      2 dentro
      2 dal
      2 cotanto
      2 cominciò
      2 ciascun
      2 bene
      2 ben
      2 beata
      2 Poi
      2 Oh
      1 “Un
      1 “Cristo
      1 ’ntendi
      1 ‘nostro’
      1 ‘noi’
      1 èli
      1 «mio»
      1 «io»
      1 «Quali
      1 «Per
      1 «O
      1 «Colui
      1 «A
      1 vuo’
      1 vostra
      1 volume
      1 volse
      1 volontà
      1 volle
      1 voleri
      1 voglia
      1 viver
      1 viva
      1 vita
      1 visto
      1 vista
      1 vincere
      1 viltate
      1 vien
      1 vid’
      1 vidi
      1 verbo
      1 veleno
      1 velame
      1 veggia
      1 vedranno
      1 vedi
      1 vecchio»
      1 usciva
      1 uom
      1 uno
      1 umana
      1 udi’
      1 t’ascondeva
      1 tutto
      1 tutte
      1 turba
      1 trovandoli
      1 tra
      1 tosto
      1 tira
      1 testeso
      1 testa
      1 terreni
      1 tenèbra
      1 tenuto
      1 te
      1 tanti
      1 tai
      1 s’interna
      1 s’assottiglia
      1 s’armasse
      1 sù
      1 superbo
      1 superbia
      1 suon
      1 stremo
      1 storia»
      1 spirando
      1 specchio
      1 spanna
      1 sozze
      1 sovresso
      1 sospinte
      1 sono
      1 sonar
      1 sommo
      1 somma
      1 solvetemi
      1 solo
      1 sole
      1 sol
      1 soffrir
      1 so
      1 sesto
      1 sermoni
      1 sereno
      1 sentir
      1 sempiterna
      1 seguon
      1 segnerà
      1 segnata
      1 sedere
      1 scrivon
      1 scriva
      1 scrittura
      1 scrisse
      1 scranna
      1 scosta»
      1 sarebbe
      1 saranno
      1 sapete
      1 salì
      1 sa
      1 rubinetto
      1 rostro
      1 riva
      1 ritrar
      1 ripiene
      1 rimira
      1 rimanesse
      1 rigira
      1 rifrangesse
      1 ricominciò
      1 riceve
      1 ricco
      1 reverendi
      1 regi
      1 recettacolo
      1 reame
      1 ragioni
      1 ragione
      1 raggio
      1 raggi
      1 radïando
      1 quivi
      1 quinci
      1 qui
      1 quetaro
      1 question
      1 questa
      1 quello
      1 quand’
      1 quai
      1 pò
      1 può
      1 pur
      1 prope
      1 profondo
      1 proda
      1 principio
      1 primo
      1 prima
      1 pria
      1 poté
      1 possente
      1 portò
      1 poran
      1 poco
      1 plaude
      1 pio
      1 perpetüi
      1 penna
      1 pelago
      1 peccato
      1 pasto
      1 pasciuti
      1 parvo
      1 parvente
      1 partiranno
      1 parranno
      1 parlar
      1 parer
      1 parea
      1 ove
      1 ombra
      1 oh
      1 odori
      1 od
      1 occulto
      1 occhio
      1 occhi
      1 nullo
      1 noteranno
      1 note
      1 nondimeno
      1 nol
      1 nido
      1 ne’
      1 nazione
      1 nasce
      1 m’ha
      1 m’apparecchio
      1 mozze
      1 moverà
      1 movea
      1 move
      1 mostrando
      1 mosse
      1 mortali»
      1 morrà
      1 monte
      1 moneta
      1 molte
      1 molle
      1 mo
      1 misura
      1 minor
      1 mille
      1 miglia
      1 miei
      1 mie
      1 mia
      1 meta
      1 menti
      1 mente
      1 men
      1 memoria
      1 meco
      1 me
      1 mare
      1 maraviglia
      1 manifesto
      1 malvage
      1 malmenare
      1 male
      1 l’uno
      1 l’universo
      1 l’isola
      1 l’etterna
      1 l’esser
      1 l’avarizia
      1 l’apprende
      1 l’anime
      1 l’altro
      1 l’altre
      1 l’Inghilese
      1 l’Indo
      1 l’Etïòpe
      1 lussuria
      1 lungi
      1 lungamente
      1 lunga
      1 lume
      1 lucenti
      1 lor
      1 loco
      1 liete
      1 leväi
      1 lettere
      1 letizia
      1 legno
      1 legga
      1 laude
      1 latebra
      1 lasciai
      1 lamenti
      1 inòpe
      1 intender
      1 infinito
      1 induce
      1 incostro
      1 incendi
      1 impresso
      1 imagine
      1 han
      1 guarda
      1 grosse
      1 gridan
      1 grazia
      1 gran
      1 gloria
      1 giudicar
      1 genti
      1 gaude
      1 garra
      1 fé
      1 frui
      1 fratel
      1 fosse
      1 fondo
      1 folle
      1 foco
      1 fiori
      1 finì
      1 fine
      1 figli
      1 fianco
      1 fian
      1 fia
      1 fede
      1 fece
      1 fatte
      1 fatta
      1 fate
      1 fascia
      1 farsi
      1 fare
      1 fantasia
      1 fame
      1 falseggiando
      1 falcone
      1 facevan
      1 facei
      1 faccendosi
      1 etate
      1 essaltato
      1 essa
      1 entro
      1 emme
      1 ei
      1 egregia
      1 eccesso
      1 d’ogne
      1 d’Alberto
      1 duol
      1 dubitar
      1 dubbio
      1 dolce
      1 distinse
      1 dispregi
      1 disio
      1 diserto
      1 discerna
      1 dir
      1 dinanzi
      1 digiuno
      1 digiun
      1 dicevi
      1 dicea
      1 dare
      1 dannerà
      1 c’ha
      1 cui
      1 crede”
      1 credette
      1 creder
      1 crebra
      1 creatura
      1 creato
      1 cotenna
      1 cotal
      1 cose
      1 corto
      1 corta
      1 corone
      1 convien
      1 convene
      1 contrario
      1 contesto
      1 consuona
      1 consigli
      1 conserte
      1 conosceranno
      1 conosce
      1 conobbe
      1 conio
      1 condanna
      1 concetto
      1 com’
      1 compreso
      1 commendan
      1 colui
      1 colpo
      1 colpa
      1 collegi
      1 ciò
      1 cigli
      1 cielo
      1 cicogna
      1 cibo
      1 ciascuna
      1 ch’ogne
      1 ch’io
      1 ch’esce
      1 ch’el
      1 ch’asseta
      1 ché
      1 chiavasse
      1 certo
      1 cela
      1 carne
      1 cappello
      1 canti
      1 cantava
      1 calor
      1 cagiona»
      1 cadde
      1 buoni
      1 buona
      1 brage
      1 bozze
      1 bontate
      1 bestia
      1 benedetta
      1 bello
      1 bella
      1 battezzato
      1 barba
      1 atti
      1 attento
      1 assai
      1 aspettar
      1 ascoltar
      1 arra
      1 ardesse
      1 appresso
      1 appar
      1 aperto
      1 aperte
      1 aperta
      1 anzi
      1 animali
      1 ancor
      1 anche
      1 amori
      1 altro
      1 alcuno
      1 alcun
      1 acerbo
      1 acceso
      1 Vinegia
      1 Ungheria
      1 Spirito
      1 Spagna
      1 Senna
      1 Scrittura
      1 Scotto
      1 Sapete
      1 Santo
      1 Roteando
      1 Romani
      1 Rascia
      1 Quasi
      1 Quale
      1 Praga
      1 Portogallo
      1 Però
      1 Perse
      1 Parea
      1 Or
      1 Ond’
      1 Norvegia
      1 Niccosïa
      1 Navarra
      1 Muore
      1 Ma
      1 Lume
      1 La
      1 Ierusalemme
      1 Famagosta
      1 Dunque
      1 Cristo”
      1 Cristian
      1 Cotanto
      1 Così
      1 Ciotto
      1 Che
      1 Certo
      1 Boemme
      1 Ben
      1 Assai
      1 Anchise
