     11 io
      6 lui
      5 sé
      5 quanto
      5 non
      5 mia
      5 fu
      5 così
      4 onde
      4 ogne
      4 o
      4 donna
      4 ché
      4 ben
      3 virtù
      3 vidi
      3 tua
      3 te
      3 suo
      3 questa
      3 quant’
      3 occhi
      3 l’anima
      3 lume
      3 fa
      3 ella
      3 convien
      3 bene
      3 Dio
      2 «Per
      2 voglia
      2 voce
      2 viva
      2 vista
      2 vero
      2 verace
      2 va
      2 tosto
      2 terra
      2 sol
      2 raggio
      2 questo
      2 quei
      2 propria
      2 prima
      2 piacere
      2 perch’
      2 pareglio
      2 ove
      2 ond’
      2 ne
      2 mio
      2 miei
      2 me
      2 leva
      2 gonna
      2 fuor
      2 fronda
      2 face
      2 dì
      2 com’
      2 col
      2 ciò
      2 cielo
      2 ciascun
      2 ch’io
      2 cagion
      2 ancor
      2 amore
      2 amor
      2 altro
      2 altra
      1 ’nvoglia
      1 ’mprenti
      1 ‘Io
      1 ïo
      1 «Tutti
      1 «Sanz’
      1 «Santo
      1 «O
      1 «Intanto
      1 «Dentro
      1 «Certo
      1 «Al
      1 v’abbella
      1 vuogli
      1 volumi
      1 volgere
      1 volea
      1 voi
      1 vita
      1 viso
      1 visivo
      1 vigilia
      1 vien
      1 verso
      1 venìa
      1 vento
      1 vene
      1 vegna
      1 veggio
      1 vedi
      1 vedere
      1 vede
      1 valore’
      1 vaglio
      1 vagheggia
      1 uscì
      1 umano
      1 uman
      1 udi’
      1 udirti
      1 udir
      1 tutt’
      1 tutto
      1 tutte
      1 tutta
      1 tuoi
      1 tuo
      1 trova
      1 trenta
      1 trecento
      1 tratto
      1 trasparer
      1 trapassar
      1 transito
      1 tra
      1 torto
      1 tornare
      1 tolta
      1 tirarti
      1 tardo
      1 tal
      1 tacqui
      1 s’intende
      1 s’infronda
      1 s’appunta
      1 s’appellava
      1 sùbito
      1 sùbita
      1 svegliato
      1 sustanze
      1 supplìco
      1 suone
      1 suoi
      1 stupendo
      1 stupefatto
      1 strada
      1 stimativa
      1 sterne
      1 sposa
      1 splendor
      1 spirò
      1 spirto
      1 spiro
      1 spera
      1 spento
      1 spenta
      1 spense
      1 speglio
      1 sovrano
      1 sovra
      1 sostenne
      1 son
      1 sommo
      1 solo
      1 solamente
      1 soccorre
      1 soblima
      1 smarrita
      1 similmente
      1 sicuro
      1 sia
      1 sguardo
      1 sesta»
      1 senti
      1 sen
      1 sempr’
      1 sempre
      1 sempiterne
      1 seguir
      1 seguendo
      1 segno
      1 secondo
      1 seconda
      1 se
      1 scrittura
      1 schiarar
      1 scendessi
      1 scende
      1 scala
      1 santo»
      1 santo
      1 santa
      1 riva
      1 risonò
      1 risense
      1 rinovella
      1 rifulgea
      1 rifece
      1 ricorre
      1 ricominciai
      1 remedio
      1 regïon
      1 razïonabile
      1 ramo
      1 rai
      1 ragionare
      1 ragionando
      1 ragion
      1 quisquilia
      1 quinci
      1 qui
      1 quattromilia
      1 quasi
      1 quarto
      1 quanti
      1 quanta
      1 quand’
      1 qualunque
      1 quadra
      1 pura
      1 puose
      1 prova
      1 professione
      1 proferta
      1 prodotto
      1 prim’
      1 primo
      1 primaia
      1 predetta
      1 preconio
      1 posto
      1 posson
      1 posso
      1 porto»
      1 porte
      1 pomo
      1 paura
      1 parli
      1 parlare
      1 parlando
      1 parlai
      1 paia
      1 padre
      1 ov’
      1 ora
      1 nuro
      1 nullo
      1 nulla
      1 novecento
      1 noi
      1 nescïa
      1 naturale
      1 natura
      1 m’hanno
      1 m’han
      1 m’avea
      1 m’accorsi
      1 mïo
      1 muta
      1 mova
      1 mosse
      1 morte
      1 mortali
      1 morsi
      1 morde»
      1 monte
      1 mondo
      1 mise
      1 mille
      1 milia
      1 mentre
      1 mente
      1 menar
      1 mei
      1 meglio
      1 medesma
      1 maturo
      1 mar
      1 man
      1 mai»
      1 mai
      1 maggio
      1 l’uso
      1 l’ovra
      1 l’ortolano
      1 l’orto
      1 l’ora
      1 l’onda
      1 l’intelletto
      1 l’infernale
      1 l’idïoma
      1 l’essere
      1 l’esser
      1 l’essenza
      1 l’eccelso
      1 l’arco
      1 l’arcano
      1 l’amor
      1 l’altre
      1 l’alto
      1 l’aguglia
      1 l’affetto
      1 lunga
      1 lumi
      1 lor
      1 lingua
      1 lievemente
      1 letizia
      1 lei
      1 legno
      1 legge
      1 latente
      1 lascia
      1 intenzione
      1 intelletto
      1 innanzi
      1 inconsummabile
      1 incominciando
      1 haï
      1 ha
      1 gustar
      1 guarda
      1 grida
      1 gran
      1 giù
      1 giardino
      1 gente
      1 gaia
      1 fïate
      1 fu’
      1 fulgida
      1 fugò
      1 fronde
      1 fosti
      1 fosse
      1 forte»
      1 fonda
      1 foco
      1 flette
      1 fin
      1 filosofici
      1 figluol
      1 figlia
      1 fiamma
      1 fei
      1 fedel
      1 fec’
      1 fece
      1 favella
      1 fattor
      1 fascia
      1 farò
      1 fare
      1 far
      1 facea
      1 etterno
      1 essilio
      1 essermi
      1 entrò
      1 effetto
      1 d’Anania»
      1 durabile
      1 dunque
      1 due
      1 dubbiava
      1 drizzò
      1 dove
      1 domandai
      1 dolcissimo
      1 divoto
      1 dissi
      1 disse
      1 dispuose
      1 disonna
      1 disonesta
      1 disio
      1 disdegno
      1 discerno
      1 diritto
      1 dinanzi
      1 dimostra
      1 diletto
      1 dico»
      1 diceva
      1 dicer
      1 dicendo
      1 dicea
      1 dice
      1 dia
      1 desiderai
      1 denti
      1 defunta
      1 cura
      1 cui
      1 creasse
      1 coverto
      1 coverta
      1 cotanto
      1 cotale
      1 costei
      1 cose
      1 cosa
      1 corte
      1 corde
      1 cor
      1 convienti
      1 conviene
      1 convene
      1 contenta
      1 consunta
      1 conoscenza
      1 conduce
      1 concorsi
      1 concorde
      1 concilio
      1 comprende
      1 compiacermi
      1 compense
      1 cominciai
      1 colui
      1 cima
      1 ciascuna
      1 ch’ïo
      1 ch’usai
      1 ch’uom
      1 ch’el
      1 ch’ebbe
      1 chiamò
      1 chi
      1 certa
      1 cerne
      1 caritate
      1 canto
      1 broglia
      1 bontate
      1 berzaglio»
      1 bando»
      1 avvantaggio
      1 autorità
      1 autoritadi
      1 autore
      1 attento
      1 attenta
      1 argomenti
      1 ardo
      1 ardeva
      1 anzi
      1 antico
      1 animal
      1 angusto
      1 ancora
      1 am’
      1 amori
      1 ambascia
      1 amando
      1 altri
      1 altre
      1 acuto
      1 accende
      1 aborre
      1 abbarbaglio
      1 Virgilio
      1 Tu
      1 Talvolta
      1 Tal
      1 Sì
      1 Sternilmi
      1 Sternel
      1 Quindi
      1 Quella
      1 Pria
      1 Però
      1 Or
      1 Opera
      1 O
      1 Non
      1 Nembròt
      1 Nel
      1 Moïsè
      1 Mentr’
      1 Ma
      1 Lo
      1 Le
      1 La
      1 Io
      1 Indi
      1 I
      1 El
      1 Dunque
      1 Cristo
      1 Comincia
      1 Come
      1 Beatrice
      1 Amore
      1 Alfa
