      9 occhi
      7 suo
      6 mia
      5 non
      4 sù
      4 parte
      4 nulla
      4 dal
      3 ïo
      3 vista
      3 vidi
      3 veder
      3 tutte
      3 tuo
      3 questo
      3 ne
      3 mo
      3 mezzo
      3 me
      3 lume
      3 luce
      3 lor
      3 io
      3 grazia
      3 giù
      3 facea
      3 dove
      3 cose
      3 colui
      3 ché
      3 Beatrice
      2 viva
      2 tutto
      2 tutta
      2 tua
      2 tra
      2 tante
      2 tanta
      2 tal
      2 suoi
      2 sguardo
      2 sene
      2 santo
      2 regno
      2 regina
      2 quivi
      2 quindi
      2 quasi
      2 qua
      2 pace
      2 ond’
      2 nostra
      2 mio
      2 miei
      2 l’altra
      2 levai
      2 letizia
      2 lei
      2 guarda
      2 forma
      2 fior
      2 fiamma
      2 fece
      2 esser
      2 elli
      2 donna
      2 divino
      2 cui
      2 così
      2 ciascun
      2 carità
      2 banco
      2 avea
      2 amor
      2 ad
      2 La
      2 Cristo
      1 ﻿In
      1 ’nnamora
      1 ’
      1 ‘Segnor
      1 «non
      1 «Ov’
      1 «O
      1 «Figliuol
      1 «Acciò
      1 «A
      1 voto
      1 vostra’
      1 volse
      1 volgeami
      1 volante
      1 volando
      1 vola
      1 voglia
      1 vivace
      1 viso
      1 visi
      1 virtute
      1 vincer
      1 vige
      1 viene
      1 vie
      1 vid’
      1 vide
      1 vestito
      1 vestige
      1 verace
      1 venuto
      1 ventilando
      1 venendo
      1 veggi
      1 veggendo
      1 vedute
      1 vede
      1 valle
      1 vaga
      1 unica
      1 udire
      1 t’acconcerà
      1 tutt’
      1 tutti
      1 tue
      1 trono
      1 trina
      1 tratto
      1 tornò
      1 tona
      1 terzo
      1 termine
      1 terminar
      1 tentar
      1 tenero
      1 tenendo
      1 tempo
      1 tempio
      1 temo
      1 te
      1 s’io
      1 s’insapora
      1 s’infiora
      1 s’infiamma
      1 s’avvivava
      1 s’aspetta
      1 s’addorna
      1 s’abbandona
      1 süo
      1 süadi
      1 sùbito
      1 sé
      1 suddito
      1 su
      1 stupor
      1 stupefaciensi
      1 stremo
      1 stella
      1 stea
      1 starmi
      1 sposa
      1 splendore
      1 speranza
      1 spera
      1 sparte
      1 soverchia
      1 sospesa
      1 sortiro»
      1 sorrise
      1 sopra
      1 sono
      1 sommo
      1 sol
      1 soggiorna
      1 soffristi
      1 sicuro
      1 servo
      1 sen
      1 sempre
      1 sembianza
      1 segno
      1 seder
      1 secondo
      1 se
      1 scintillando
      1 schiera
      1 scendean
      1 scemo
      1 sazia
      1 sarà
      1 santi
      1 santa
      1 sano
      1 sangue
      1 sana
      1 salute
      1 rïaccesa
      1 rotante
      1 rosa
      1 rivedrai
      1 ritorna
      1 rispuose
      1 risponder
      1 riso
      1 risaliva
      1 rimirar
      1 riguardommi
      1 riguardi
      1 riguardando
      1 ridir
      1 ridere
      1 ricrea
      1 riconosco
      1 remoto
      1 regïon
      1 reflettendo
      1 recirculando
      1 rai
      1 raggio
      1 quinci
      1 quest’
      1 quelle
      1 quant’
      1 quanto
      1 quanta
      1 quando
      1 qualunque
      1 quale
      1 pur
      1 puote
      1 procella
      1 priego
      1 potestate
      1 porgevan
      1 popol
      1 podere
      1 plaga
      1 pio
      1 piacente
      1 però
      1 perfettamente»
      1 peregrin
      1 pensier
      1 penne
      1 penetrante
      1 passeggiando
      1 parea
      1 paradiso
      1 padre
      1 pacifica
      1 ove
      1 ostante
      1 orïental
      1 ornati
      1 oriafiamma
      1 orai
      1 or
      1 opra
      1 onestadi
      1 ogne
      1 occhio
      1 novella
      1 noto
      1 neve
      1 m’hai
      1 mïo
      1 muto
      1 mostrava
      1 mostra
      1 mosse
      1 mortali
      1 mortale
      1 monte
      1 montar
      1 mondo
      1 moltitudine
      1 modo
      1 modi
      1 mista
      1 mirando
      1 minimo
      1 mille
      1 milizia
      1 merti
      1 mente
      1 menava
      1 mattina
      1 mare
      1 mandommi
      1 mal
      1 magnificenza
      1 l’universo
      1 l’umano
      1 l’orizzonte
      1 l’interporsi
      1 l’etterno
      1 l’etterna
      1 l’ardüa
      1 l’ardore
      1 l’antica
      1 l’anima
      1 l’altro
      1 l’ali
      1 lì
      1 lui
      1 lontana
      1 loco
      1 libito
      1 libertate
      1 lasciar
      1 laboro
      1 intendëa
      1 infino
      1 inferno
      1 impediva
      1 imaginar
      1 igual
      1 ho
      1 hai
      1 gustò
      1 guidò
      1 gran
      1 grado
      1 gradi
      1 glorïose
      1 gloria
      1 giusto
      1 giuso
      1 giro
      1 giorno
      1 giocondo»
      1 giochi
      1 giardino
      1 genti
      1 gente
      1 general
      1 gene
      1 gaudïoso
      1 gaudio
      1 fïata
      1 fé
      1 fulgore
      1 fu
      1 fronte
      1 frequente
      1 fregiati
      1 forse
      1 fontana
      1 fondo
      1 foglie
      1 fissi
      1 fiso
      1 fiore
      1 fin
      1 figlio
      1 fianco
      1 festanti
      1 fermato
      1 fedel
      1 fatt’
      1 fatta
      1 farà
      1 fare
      1 fame
      1 facce
      1 fa
      1 etterni
      1 esso
      1 essere
      1 ello
      1 ella»
      1 ella
      1 effige
      1 d’oro
      1 d’ogne
      1 d’arte
      1 d’ape
      1 d’amor
      1 d’altrui
      1 d’Elice
      1 dunque
      1 dovea
      1 domandar
      1 divizia
      1 divina
      1 distinto
      1 dista
      1 diss’
      1 disse
      1 disopra
      1 disnodi»
      1 disiro
      1 discendëa
      1 discendeva
      1 dir
      1 dice
      1 devoto»
      1 delizia
      1 degno
      1 declina
      1 custodi
      1 cuopra
      1 credea
      1 cotanta
      1 corpo
      1 corona
      1 convene
      1 contemplando
      1 com’
      1 compresa
      1 compiuto
      1 cominciò
      1 col
      1 ciò
      1 cielo
      1 ch’elli
      1 cerchi
      1 canti
      1 canta
      1 candida
      1 cammino
      1 caler
      1 caldo
      1 bontà
      1 bontate
      1 bianco
      1 benigna
      1 bellezza
      1 barbari
      1 avessi
      1 avei
      1 avean
      1 atto
      1 atti
      1 attenti
      1 assommi
      1 arriva
      1 ardo
      1 ardirei
      1 ardenti
      1 appaga
      1 antica
      1 angeli
      1 andò
      1 andando
      1 ancor
      1 amore
      1 altro
      1 altri
      1 allentava
      1 alcun
      1 affetto
      1 acquistavan
      1 Vidi
      1 Veronica
      1 Vedëa
      1 Uno
      1 Tu
      1 Se
      1 Sanza
      1 Roma
      1 Questo
      1 Quando
      1 Qual
      1 Ond’
      1 O
      1 Né
      1 Le
      1 Laterano
      1 Io
      1 Iesù
      1 Fiorenza
      1 Fetonte
      1 Dio
      1 Diffuso
      1 Da
      1 Croazia
      1 Così
      1 Certo
      1 Bernardo»
      1 Bernardo
