     18 non
      9 me
      7 io
      6 vidi
      5 occhi
      5 lui
      4 tutto
      4 tra
      4 son
      4 pur
      4 ad
      4 Sordello
      3 testa
      3 se
      3 quanto
      3 quando
      3 più
      3 l’altro
      3 gente
      3 fu
      3 elli
      3 dove
      2 «Or
      2 «Oh»
      2 vostra
      2 vi
      2 verdi
      2 va
      2 uscir
      2 tre
      2 suo
      2 stelle
      2 serpente
      2 qui
      2 quello
      2 quattro
      2 poscia
      2 piè
      2 parte
      2 ora
      2 onde
      2 o
      2 noi
      2 ne
      2 miei
      2 mia
      2 mezzo
      2 l’occhio
      2 l’aere
      2 lì
      2 lor
      2 lei
      2 grida
      2 giudice
      2 fui
      2 fia
      2 fece
      2 ei
      2 dì
      2 due
      2 dolci
      2 diss’
      2 dietro
      2 credo
      2 core
      2 ben
      2 angeli
      2 ancor
      2 ai
      2 Ond’
      2 Non
      2 Io
      2 Dio
      2 Currado
      1 ’ rei
      1 ’ miei
      1 ’ntenerisce
      1 ’nnocenti
      1 ’
      1 ‘l
      1 ‘Te
      1 ‘D’altro
      1 «se
      1 «Se
      1 «Quant’
      1 «Per
      1 «Le
      1 «Figliuol
      1 «Ambo
      1 «A
      1 zelo
      1 vòlto
      1 vostri
      1 volte
      1 volta
      1 volsi
      1 volse»
      1 volse
      1 volgendo
      1 volge
      1 volesse
      1 vita
      1 virtù
      1 vipera
      1 vieni
      1 vie
      1 vicina
      1 via»
      1 veste
      1 ver’
      1 verso
      1 verrà
      1 vero
      1 vera
      1 venìa
      1 ventilate
      1 venni
      1 venne
      1 venisti
      1 velo
      1 vegnon
      1 vedevi
      1 vedervi
      1 veder
      1 vano
      1 vallea
      1 valle
      1 vada
      1 uscìo
      1 udita
      1 tutti
      1 tutta
      1 tuo
      1 truovi
      1 troppo
      1 tronche
      1 tristi
      1 trasse
      1 trasmutò
      1 trapassar
      1 traean
      1 torca
      1 tatto
      1 tarde
      1 tanta
      1 tacque
      1 tacito
      1 s’io
      1 s’arresta»
      1 s’annerava
      1 sùbito
      1 sù
      1 sé
      1 suso
      1 surta
      1 superne
      1 suoi
      1 sue
      1 striscia
      1 stretto
      1 stelo
      1 star
      1 stampa
      1 stamane
      1 staman
      1 squilla
      1 sponda
      1 spesso
      1 spalle
      1 spade
      1 spada
      1 sovra
      1 sotto
      1 sottile
      1 sopra
      1 sono
      1 sommo
      1 sola
      1 sol
      1 smarrita
      1 smarria
      1 smalto»
      1 singular
      1 sien
      1 sfregia
      1 sette
      1 serrava
      1 sermone
      1 sepultura
      1 seguitar
      1 segnori
      1 segnato
      1 sedea
      1 sciolta
      1 scese
      1 scendesse
      1 scender
      1 sarai
      1 sapeva
      1 salutar
      1 salite
      1 sai
      1 sa
      1 rote
      1 rota
      1 rivolando
      1 risposta
      1 risponde
      1 riparo
      1 riguardare
      1 ricorca
      1 reo
      1 render
      1 raffina»
      1 raccolta
      1 raccolse
      1 queste
      1 quelle»
      1 quelle
      1 quasi
      1 quant’
      1 quand’
      1 quai
      1 qua
      1 punto
      1 punte
      1 punge
      1 privilegia
      1 private
      1 primo
      1 prima
      1 pria
      1 presso
      1 pregio
      1 poste
      1 posso
      1 portai
      1 polo
      1 poco
      1 picciola
      1 pianger
      1 piacque
      1 però
      1 peregrin
      1 percosse
      1 penne
      1 passi
      1 parleremo
      1 parlava
      1 palme
      1 palido
      1 palesi
      1 paia
      1 paesi
      1 ov’
      1 or
      1 oppinïone
      1 onrata
      1 onora
      1 ombre
      1 omai
      1 ode
      1 novo
      1 novella
      1 note
      1 nostro
      1 navicanti
      1 natura
      1 nate
      1 nasconde
      1 m’ami
      1 m’accostai
      1 mosso
      1 mosser
      1 more
      1 monte
      1 mondo
      1 mo
      1 misuratamente
      1 misera
      1 mirava
      1 mirare
      1 mio
      1 mestiere
      1 mente
      1 mena
      1 mano
      1 mala
      1 mal
      1 mai
      1 maggior
      1 madre
      1 l’uno
      1 l’udire
      1 l’orïente
      1 l’ora
      1 l’opposita
      1 l’inno
      1 l’erba
      1 l’ascoltar
      1 l’antico
      1 l’amor
      1 l’altre
      1 l’altra
      1 l’alto
      1 l’alme
      1 l’accende
      1 luoghi
      1 lucis
      1 lucerna
      1 lontano
      1 lontane
      1 liscia
      1 lieve
      1 levò
      1 lettor
      1 letto
      1 leggero
      1 leccando
      1 larghe
      1 intorno
      1 intero
      1 inforca
      1 infino
      1 incominciai
      1 iguali
      1 ha
      1 guardia
      1 guarde»
      1 guardasse
      1 guardare
      1 guado
      1 gridando«Sù
      1 grembo
      1 grazïoso
      1 grazia
      1 grandi
      1 grande
      1 grado
      1 giùe
      1 giuro
      1 giunse
      1 giudicio
      1 giorno
      1 ghiotti
      1 gentile
      1 gentil
      1 gelato
      1 gallo
      1 fuggì
      1 forse
      1 fogliette
      1 foco
      1 fior
      1 fidate
      1 ficcando
      1 fender
      1 femmina
      1 fei
      1 fatto
      1 farà
      1 fama
      1 facelle
      1 faccia
      1 essercito
      1 esser
      1 esse
      1 erano
      1 eran
      1 entro
      1 ella
      1 ed
      1 d’amore
      1 d’amor
      1 d’altrui
      1 dura
      1 duca
      1 drizzò
      1 dritto
      1 dritta
      1 dosso
      1 dolcemente
      1 dito
      1 disse
      1 dispregia»
      1 disio
      1 discesi
      1 discernëa
      1 dimora
      1 dimandò
      1 dillo
      1 dier
      1 diede
      1 dichiarisse
      1 dicesse
      1 dicer
      1 dicendo«Vedi
      1 dicea
      1 devote
      1 devotamente
      1 detto
      1 dentro
      1 dei
      1 c’han
      1 cuopre
      1 cotesta
      1 cortese
      1 corso
      1 convien
      1 contrada
      1 contenne
      1 conoscer
      1 confonda
      1 com’
      1 comprende
      1 cominciò
      1 colui
      1 ciò
      1 cielo
      1 cibo
      1 ch’
      1 ché
      1 chiovi
      1 chiedea
      1 chiavata
      1 chiare
      1 chiamò
      1 chiami
      1 chiamato
      1 chi
      1 certo
      1 cera
      1 celestïali
      1 casa
      1 capo
      1 cammin
      1 calme’
      1 calle
      1 brami
      1 borsa
      1 bocca
      1 biscia
      1 bionda
      1 bianche
      1 bestia
      1 bene
      1 bende
      1 bella
      1 bel
      1 basse
      1 avversaro»
      1 avvampa
      1 avvalliamo
      1 avria
      1 avendo
      1 astor
      1 assalto
      1 assai»
      1 assai
      1 aspetto
      1 aspettando
      1 arde»
      1 arbitrio
      1 andavan
      1 andando
      1 ancora
      1 anco
      1 amici
      1 ambo
      1 amaro
      1 alto
      1 ali
      1 affocate
      1 addio
      1 acquisti»
      1 acque»
      1 accampa
      1 Virgilio
      1 Ver’
      1 Verdi
      1 Val
      1 Uso
      1 Tra
      1 Temp’
      1 Solo
      1 Sentendo
      1 Poi
      1 Per
      1 Nullo
      1 Nin
      1 Montone
      1 Melanesi
      1 Maria»
      1 Malaspina
      1 Magra
      1 L’uno
      1 L’ombra
      1 Li
      1 La
      1 Giovanna
      1 Gallura»
      1 Fui
      1 Eva
      1 Europa
      1 Era
      1 Ella
      1 Ed
      1 Da
      1 Così
      1 Com’
      1 Ben
      1 Aguzza
      1 
