     19 non
      7 lui
      6 io
      5 più
      5 ne
      4 son
      4 se
      4 fu
      4 dove
      4 disse
      3 volte
      3 suso
      3 suo
      3 questo
      3 o
      3 cui
      3 colui
      2 ’ve
      2 vita
      2 virtù
      2 vinto
      2 vi
      2 vaso
      2 valor
      2 tre
      2 tra
      2 terra
      2 tardi
      2 sé
      2 sto
      2 solo
      2 siede
      2 seder
      2 sanza
      2 rispuose
      2 re
      2 rami
      2 quindi
      2 quei
      2 quanto
      2 qua
      2 puote
      2 potea
      2 però
      2 parole
      2 par
      2 ond’
      2 notte
      2 monte
      2 mio
      2 minor
      2 mie
      2 meglio
      2 l’umana
      2 l’altre
      2 lei
      2 ir
      2 intorno
      2 ha
      2 giù
      2 giorno
      2 fosser
      2 far
      2 fa
      2 d’
      2 dà
      2 dopo
      2 diletto
      2 dicendo
      2 dal
      2 c’ha
      2 costa
      2 cosa
      2 color
      2 ciò
      2 ciel
      2 cantando
      2 buon
      2 aver
      2 avea
      2 andar
      2 ad
      2 Quel
      2 Non
      2 Ma
      2 L’altro
      2 Albia
      1 ’ volti
      1 ‘Salve
      1 è8230»
      1 è8230
      1 «tra
      1 «son
      1 «n’anderemo
      1 «dunque
      1 «Voi
      1 «Vedi
      1 «Prima
      1 «Per
      1 «O
      1 «Menane»
      1 «Loco
      1 «Ella
      1 «Com’
      1 «Colà»
      1 «Chi
      1 «Anzi
      1 vòlti
      1 volesse
      1 vole
      1 voi
      1 vogliate
      1 voglia
      1 vizio
      1 viziata
      1 vista
      1 viene
      1 vien
      1 vidi
      1 vestiro
      1 ver’
      1 verde
      1 venuto
      1 venir
      1 vegno
      1 vedi
      1 vedete
      1 veder
      1 vede
      1 varcheresti
      1 vanta
      1 vanno
      1 vallon
      1 valle
      1 uscita
      1 uno
      1 umilmente
      1 t’accosto
      1 tutt’
      1 tutti
      1 tutte
      1 tue
      1 tristo
      1 trasse
      1 tosto
      1 tornare
      1 tien
      1 tenebre
      1 tenebra
      1 tal
      1 s’atterra
      1 s’appiglia
      1 s’annidi»
      1 s’accorda
      1 sùbita
      1 sù
      1 su’
      1 suonan
      1 suoi
      1 suocero
      1 sul
      1 stretto
      1 sospiri
      1 sospirando
      1 sono
      1 sole
      1 sola
      1 sol
      1 soggiorno
      1 soavità
      1 smeraldo
      1 siete»
      1 sereno
      1 sepolte
      1 sentiero
      1 seno
      1 semplice
      1 seme
      1 sembianti
      1 seguir
      1 segnor
      1 schembo
      1 scemo
      1 sceman
      1 sarria
      1 saria
      1 sante
      1 sanno
      1 sanar
      1 salire
      1 salir
      1 sai
      1 ritornò
      1 risurge
      1 risposto
      1 rio
      1 rimaso
      1 riga
      1 ricrea
      1 retro
      1 retaggio
      1 resse
      1 remote
      1 regno»
      1 rede
      1 reami
      1 quivi
      1 quici
      1 questi
      1 questa
      1 quell’
      1 quelli
      1 quattro
      1 quasi
      1 quanti
      1 quante
      1 quand’
      1 può
      1 purgatorio
      1 pur
      1 puoi
      1 probitate
      1 pregio
      1 potesse»
      1 posto
      1 posti
      1 posso
      1 possiede
      1 possiam
      1 portò
      1 porta
      1 poria
      1 poco
      1 pianta
      1 piano
      1 pianger
      1 piaghe
      1 petto
      1 perduto
      1 perdei
      1 pensar
      1 passeggiar
      1 pasce
      1 parve
      1 partito
      1 pargoli
      1 parean
      1 palma
      1 ozio
      1 ove
      1 oneste
      1 onde
      1 ombra
      1 omai
      1 odori
      1 null’
      1 novo
      1 notturna
      1 note»
      1 nostra
      1 nonpoder
      1 nome
      1 noi
      1 ne’
      1 nessun
      1 negletto
      1 natura
      1 nasuto
      1 naso
      1 nasetto
      1 nasce
      1 m’accorsi
      1 muore
      1 move
      1 mostrò
      1 mostra
      1 mosse
      1 morì
      1 morte
      1 morta
      1 morsi
      1 mille
      1 migliore
      1 miglior
      1 mezzo
      1 merrò
      1 merito
      1 mentre
      1 meno
      1 men
      1 membruto
      1 me
      1 maschio
      1 martìri
      1 marito
      1 marchese
      1 maraviglia
      1 mar
      1 mal
      1 maggiore
      1 l’ossa
      1 l’orizzonte
      1 l’ora
      1 l’erba
      1 l’anime
      1 l’altro
      1 l’alto
      1 l’acqua
      1 l’accoglienze
      1 lussuria
      1 lucido
      1 lorda
      1 loco
      1 lingua
      1 liete
      1 licito
      1 lici
      1 letto
      1 lembo
      1 legno
      1 lancia
      1 lamenti
      1 lama
      1 lacca
      1 ivi
      1 iterate
      1 intriga
      1 innocenti
      1 innanzi
      1 inizio»
      1 indizio
      1 indistinto
      1 indaco
      1 incognito
      1 imperador
      1 impedito
      1 ho
      1 hanno
      1 guisa
      1 guidi
      1 guida
      1 guerra
      1 guardate
      1 guardando
      1 guancia
      1 guai
      1 grembo
      1 grazia
      1 gloria
      1 giuso
      1 giovanetto
      1 giglio
      1 fé»
      1 furo
      1 fur
      1 fuori
      1 fui
      1 fuggendo
      1 fresco
      1 fregò
      1 fosse
      1 fora
      1 fiori
      1 fior
      1 fine
      1 figlio
      1 fier
      1 fianco
      1 fiacca
      1 fatto
      1 fasce
      1 fare
      1 facea
      1 face
      1 etterno
      1 essi
      1 essenti
      1 esse
      1 erto
      1 errando
      1 elli
      1 ebbe
      1 d’udir
      1 d’ogne
      1 d’inferno
      1 d’altrui
      1 dì
      1 duol
      1 duca
      1 dritto
      1 dovea
      1 dolente
      1 dole
      1 dito
      1 disiri
      1 disfiorando
      1 dir
      1 dipinto
      1 dimorando»
      1 dimmi
      1 dici
      1 dichina
      1 destra
      1 desse
      1 dentr’
      1 denti
      1 degno
      1 degne
      1 dai
      1 c’hanno
      1 c’eravam
      1 crede
      1 costor
      1 corda
      1 consiglio
      1 consenti
      1 conosciuto
      1 conoscerete
      1 conobber
      1 conforta
      1 condusse
      1 cominciò
      1 colpa
      1 col
      1 coi
      1 cocco
      1 ciò»
      1 cinta
      1 ciglia
      1 ciascun
      1 ci
      1 ch’io
      1 ch’aver
      1 ch’altra
      1 ché
      1 chiuso»
      1 chiostra»
      1 chinò
      1 chiami
      1 chi
      1 certo
      1 cerchi
      1 canti
      1 canta
      1 briga
      1 bocca
      1 biacca
      1 benigno
      1 ben
      1 bel
      1 batte
      1 basso
      1 barbuto
      1 balzo
      1 avante
      1 atti
      1 attenderemo»
      1 assai
      1 aspetto
      1 argento
      1 anime
      1 andava
      1 ancor
      1 ammirando
      1 altrui
      1 altro
      1 altri
      1 alto
      1 allungati
      1 allora
      1 alcuno
      1 accolti
      1 abbracciòl
      1 Virgilio
      1 Vincislao
      1 Vedete
      1 Tra
      1 Tant’
      1 S’io
      1 Sordello
      1 Sordel
      1 Sol
      1 Rodolfo
      1 Rispuose
      1 Rade
      1 Quivi
      1 Qual
      1 Puglia
      1 Proenza
      1 Poscia
      1 Poco
      1 Pier
      1 Padre
      1 Ottavian
      1 Ottacchero
      1 Oro
      1 Monferrato
      1 Molta
      1 Margherita
      1 Mantoan
      1 Luogo
      1 Latin»
      1 Italia
      1 Io
      1 Inghilterra
      1 Iacomo
      1 Guiglielmo
      1 Francia
      1 Federigo
      1 Dio
      1 Di
      1 Così
      1 Costanza
      1 Colui
      1 Canavese»
      1 Ben
      1 Beatrice
      1 Arrigo
      1 Anime
      1 Anche
      1 Allora
      1 Alessandria
